name,q_q1,q_q2,q_q3,q_q4,q_q5,q_q6,q_q7,q_q8,q_q9,q_q10,q_q11,q_q12,q_q13,q_q14,q_q15,q_q16,q_q17,q_q18,q_q19,q_q20,q_q21,q_q22,q_q23,q_q24,q_q25,q_q26,q_q27
RandomS1,d,a,b,a,a,c,c,b,b,e,d,c,e,c,c,e,d,b,b,d,e,e,e,a,a,b,b
RandomS2,d,c,b,c,d,d,e,c,a,d,c,a,d,d,d,c,e,b,a,a,c,b,b,c,c,a,e
RandomS3,c,c,a,c,e,d,c,c,a,a,e,a,c,d,a,a,c,d,d,c,b,c,d,e,b,a,c
RandomS4,a,e,d,a,e,a,e,b,d,d,e,c,a,c,c,b,d,a,c,a,a,b,c,a,b,d,b
RandomS5,c,c,d,c,d,b,d,e,d,c,a,e,a,c,e,c,c,b,a,a,c,d,c,a,b,a,e
RandomS6,c,d,a,a,a,d,a,a,c,c,b,a,e,a,d,b,c,c,e,d,b,d,a,e,d,a,b
RandomS7,e,d,d,c,c,b,b,c,e,a,a,b,c,d,a,d,c,c,b,c,a,c,b,a,c,e,a
RandomS8,d,b,d,e,a,e,a,b,c,d,d,c,e,a,e,a,e,b,d,b,a,b,c,a,d,a,b
RandomS9,a,c,e,a,e,d,c,c,b,e,a,e,a,a,e,a,a,d,c,c,b,d,c,e,d,a,b
RandomS10,a,c,c,e,d,c,e,d,a,c,e,c,c,b,b,c,c,d,b,b,b,b,d,b,d,b,b
RandomS11,d,c,d,e,c,e,d,a,e,a,e,d,a,b,b,e,c,e,d,b,a,a,d,d,a,b,c
RandomS12,d,b,d,b,d,b,e,d,b,c,b,e,c,d,c,d,e,b,a,d,d,b,e,c,a,c,b
RandomS13,c,a,e,c,a,d,d,d,d,d,a,a,d,e,a,e,b,b,c,d,c,b,c,e,e,d,a
RandomS14,c,b,c,e,d,b,e,a,a,a,c,b,b,e,b,e,e,b,c,d,c,c,e,b,a,d,a
RandomS15,e,c,e,d,b,b,a,e,e,a,b,b,e,b,b,b,b,e,c,e,d,a,d,d,b,e,b
RandomS16,b,b,a,d,c,d,e,a,d,c,c,d,a,b,b,d,e,a,d,c,e,d,c,e,a,d,a
RandomS17,a,e,c,b,d,d,d,a,d,a,c,c,a,e,d,e,e,c,e,a,b,c,e,d,c,e,e
RandomS18,b,e,a,c,b,a,a,a,a,b,c,a,d,e,b,e,d,e,c,e,c,b,a,a,e,b,d
RandomS19,c,b,e,b,e,c,d,e,b,d,d,a,c,c,c,e,b,c,b,d,d,b,c,e,c,a,a
RandomS20,d,c,b,b,a,c,b,a,b,d,b,b,c,a,d,b,e,b,b,d,c,e,a,a,b,d,c
RandomS21,d,a,d,c,c,a,c,a,d,a,e,b,b,a,c,b,a,e,c,c,a,c,b,c,c,e,e
RandomS22,d,d,a,c,e,e,a,e,b,b,e,a,a,d,c,a,e,a,e,c,b,e,e,b,a,c,a
RandomS23,b,c,c,d,c,b,c,d,d,c,b,a,b,b,c,c,c,a,d,c,b,c,c,a,d,c,c
RandomS24,d,a,b,c,d,a,c,c,c,e,a,a,d,e,c,c,e,d,e,d,e,c,e,c,e,c,c
RandomS25,d,d,a,e,c,d,e,a,c,e,e,d,c,a,b,d,b,a,e,c,a,c,c,c,d,a,b
RandomS26,b,c,d,e,b,d,d,d,c,c,b,e,a,a,e,b,a,e,e,c,e,d,d,b,c,a,c
RandomS27,c,c,a,c,e,b,d,c,a,e,d,c,a,d,c,a,a,a,d,c,e,c,c,d,a,b,d
RandomS28,a,c,c,c,a,d,a,b,e,d,a,a,a,b,d,e,e,b,d,e,d,b,a,b,b,d,d
RandomS29,e,b,c,a,a,c,d,c,d,a,b,d,e,d,b,d,d,d,c,a,c,a,a,c,c,e,b
RandomS30,e,a,e,e,b,c,a,b,c,a,c,c,b,b,c,a,e,a,b,e,c,d,b,e,e,a,b
RandomS31,a,d,a,c,a,b,d,d,b,b,e,c,c,c,e,d,c,c,e,e,b,d,d,a,a,d,b
RandomS32,e,d,c,b,b,c,c,c,b,b,c,b,b,e,b,b,b,c,d,d,d,d,e,e,a,b,b
RandomS33,a,d,e,c,c,a,e,a,a,a,e,e,a,e,a,c,d,a,e,c,b,a,d,e,d,c,a
RandomS34,e,b,a,b,e,e,d,c,a,d,d,b,c,a,b,e,c,c,b,d,e,b,b,b,a,d,e
RandomS35,d,b,e,e,c,c,c,d,d,d,e,d,c,d,a,a,b,a,e,a,b,e,c,d,a,b,b
RandomS36,c,b,a,a,c,c,d,a,e,d,e,a,d,c,d,d,a,d,c,c,c,e,e,c,b,c,b
RandomS37,a,a,d,e,b,e,d,d,a,a,b,e,a,d,a,b,d,d,e,b,a,e,b,d,e,c,c
RandomS38,e,e,e,c,a,d,a,e,c,e,b,e,e,d,a,e,e,c,c,a,d,c,d,e,d,d,b
RandomS39,a,d,c,a,e,b,a,e,b,b,e,e,e,b,e,b,b,b,e,e,e,b,d,a,d,b,d
RandomS40,a,b,e,a,b,d,c,d,e,c,d,d,e,c,e,a,d,e,c,e,a,b,a,e,a,a,e
RandomS41,d,d,e,c,b,c,c,c,c,a,c,e,c,a,c,c,c,e,a,b,a,b,a,e,d,c,d
RandomS42,c,e,b,c,b,d,b,a,a,e,d,b,b,c,e,e,b,e,c,e,c,a,c,d,d,a,a
RandomS43,e,d,d,c,d,a,b,d,d,c,c,d,c,e,c,b,d,c,a,b,a,a,b,e,e,d,e
RandomS44,d,e,d,e,d,c,d,b,e,d,c,b,a,a,a,d,d,c,c,d,a,b,a,a,a,b,b
RandomS45,c,a,b,c,a,d,e,b,e,a,c,a,c,d,d,c,d,b,b,a,c,e,e,b,e,d,c
RandomS46,a,d,c,a,c,c,a,d,e,b,a,b,e,e,d,c,b,a,b,c,e,d,a,c,e,a,c
RandomS47,b,c,e,d,e,a,d,a,c,a,d,d,d,d,a,a,e,a,e,e,d,c,b,b,c,c,a
RandomS48,c,b,d,a,d,c,d,c,b,a,d,d,e,a,c,b,b,b,c,c,a,c,d,b,d,d,b
RandomS49,a,b,d,a,b,a,b,e,c,d,b,a,a,e,a,d,b,a,d,e,c,b,b,b,c,a,d
RandomS50,b,c,c,d,c,a,a,d,b,e,e,e,e,c,d,d,a,d,d,b,a,a,e,a,c,b,a
RandomS51,e,c,a,b,d,b,b,e,c,d,c,d,a,a,c,b,d,e,a,d,c,e,b,d,d,a,e
RandomS52,e,d,a,d,b,d,b,b,e,a,b,a,b,b,d,b,a,a,e,e,e,c,e,e,a,b,b
RandomS53,b,d,d,b,a,b,d,d,b,c,e,d,d,e,b,b,c,c,d,c,a,e,e,a,c,b,c
RandomS54,a,a,b,a,e,e,d,d,e,c,b,b,c,a,b,c,b,d,d,a,e,d,b,a,d,e,d
RandomS55,e,e,a,a,b,a,b,a,c,b,e,a,e,c,e,b,c,e,a,e,c,a,a,b,e,b,e
RandomS56,a,e,e,e,a,a,b,e,d,d,a,d,c,b,a,c,b,a,a,e,d,d,d,d,a,d,d
RandomS57,b,a,b,a,a,a,b,d,d,e,b,d,d,a,a,a,c,d,a,e,a,e,a,c,c,b,c
RandomS58,a,a,a,c,e,d,a,d,b,c,e,a,a,e,a,e,c,d,b,e,c,a,c,c,d,b,b
RandomS59,e,b,c,d,b,b,e,c,c,e,a,e,d,c,e,c,e,e,d,e,b,a,b,c,c,b,d
RandomS60,e,b,e,b,d,a,e,a,c,b,a,a,e,e,e,b,d,b,e,a,a,d,d,a,b,c,e
RandomS61,a,c,d,a,c,c,c,e,e,a,d,e,e,a,c,d,c,c,a,c,e,e,a,c,e,c,d
RandomS62,d,e,b,e,d,e,c,a,d,e,e,a,a,e,d,c,e,b,b,a,d,d,b,c,c,d,b
RandomS63,b,d,c,a,d,c,c,b,d,d,d,a,e,d,e,d,d,a,e,a,c,b,e,a,c,b,b
RandomS64,c,c,e,e,e,d,c,a,e,a,d,b,c,a,e,b,e,a,e,d,e,e,b,a,c,e,c
RandomS65,a,c,c,c,c,b,d,c,b,b,d,b,a,d,a,b,c,b,d,a,a,d,b,d,c,a,c
RandomS66,a,c,d,e,d,c,d,d,b,a,d,d,e,a,c,b,d,e,b,b,a,a,b,e,c,c,e
RandomS67,a,e,e,b,a,b,a,d,c,e,c,c,e,a,c,c,a,e,e,b,e,a,a,d,c,d,e
RandomS68,b,b,a,a,c,d,d,a,a,c,d,c,a,b,d,e,b,c,b,d,c,a,b,c,c,c,b
RandomS69,a,a,a,a,a,c,e,b,a,a,c,e,d,d,d,a,b,d,d,b,e,a,b,c,b,a,e
RandomS70,a,c,d,c,a,e,b,e,a,d,d,e,c,e,a,a,c,c,c,b,b,e,d,b,d,a,a
RandomS71,e,d,c,e,e,c,a,b,a,c,e,e,c,e,b,b,c,a,c,c,e,c,e,b,c,d,e
RandomS72,d,a,c,e,a,d,e,c,c,a,e,b,c,b,c,b,d,c,b,a,c,e,d,e,b,a,d
RandomS73,e,a,e,e,d,c,b,c,c,b,d,e,a,b,d,c,c,b,a,c,a,d,b,d,a,d,d
RandomS74,c,c,e,e,a,a,e,b,a,b,d,e,e,d,e,b,a,a,b,d,d,a,d,d,b,b,b
RandomS75,d,c,a,d,a,d,b,c,c,a,c,d,a,c,a,c,a,d,d,b,c,e,e,b,d,e,c
RandomS76,e,e,b,e,c,c,a,d,d,e,a,d,d,d,a,d,b,e,d,d,b,c,d,e,a,c,e
RandomS77,c,e,e,b,a,e,b,c,b,e,e,d,c,d,d,d,b,d,b,c,d,e,c,c,c,a,b
RandomS78,a,a,c,d,e,c,d,c,d,d,d,b,c,a,e,d,a,a,d,b,b,e,b,a,b,c,d
RandomS79,a,a,a,e,a,e,a,c,b,b,d,b,a,c,d,d,c,c,a,a,d,a,a,b,b,a,d
RandomS80,d,b,d,c,e,d,e,b,e,c,b,a,a,d,b,b,a,d,e,c,e,e,c,a,d,e,a
RandomS81,e,a,b,b,b,a,a,d,c,e,d,b,e,c,a,c,b,b,a,e,b,c,d,b,a,d,c
RandomS82,a,d,c,d,a,b,b,e,b,e,b,d,b,a,d,c,a,b,c,e,e,a,a,e,a,c,e
RandomS83,b,d,c,a,a,b,b,d,d,e,b,e,a,e,d,b,d,d,a,c,a,d,c,d,a,d,a
RandomS84,c,d,b,e,c,d,e,e,d,a,d,d,c,c,b,e,a,e,d,c,b,a,b,a,b,a,e
RandomS85,a,d,a,e,b,c,a,c,c,b,a,b,d,a,e,e,c,c,e,e,d,b,e,d,c,b,b
RandomS86,a,e,e,b,c,d,b,d,c,d,b,a,e,e,a,b,c,e,a,a,b,c,d,c,b,d,c
RandomS87,d,c,a,b,d,c,a,b,d,a,e,c,e,c,d,c,a,e,e,e,c,d,a,e,b,a,c
RandomS88,d,d,b,d,d,e,a,a,a,c,a,e,e,d,e,d,e,e,e,d,b,c,e,d,a,b,d
RandomS89,b,c,b,a,e,e,d,b,d,b,e,e,a,e,b,b,a,e,e,d,b,b,e,b,e,c,e
RandomS90,c,e,a,d,d,d,d,e,d,a,e,d,e,d,d,a,c,e,a,c,c,d,a,c,b,e,a
RandomS91,b,b,b,d,e,c,b,e,b,c,d,c,c,c,b,e,b,e,d,a,c,a,d,c,e,b,a
RandomS92,b,b,d,d,c,e,d,a,d,d,e,e,e,e,a,d,c,e,c,e,d,a,e,c,b,b,a
RandomS93,d,c,c,c,c,a,c,b,c,e,d,e,c,a,b,e,c,a,c,a,c,c,a,b,b,e,b
RandomS94,c,e,c,a,a,c,e,a,e,a,b,c,e,c,e,b,c,e,a,e,b,c,a,b,a,e,a
RandomS95,c,a,c,d,e,a,e,a,e,c,e,c,a,d,c,e,b,e,a,a,d,c,a,d,b,e,a
RandomS96,a,d,e,d,a,e,b,a,b,d,e,b,a,d,a,b,c,e,a,a,a,a,d,d,d,a,a
RandomS97,e,b,a,a,c,d,c,c,c,e,e,c,a,e,e,c,d,a,a,e,a,c,e,e,b,c,d
RandomS98,b,d,e,b,e,d,d,a,d,a,a,b,e,d,b,d,c,a,a,e,c,a,c,c,b,e,e
RandomS99,d,d,b,a,d,e,d,d,d,c,a,e,e,a,a,a,b,c,e,c,a,e,c,c,c,c,d
RandomS100,e,c,e,d,c,d,a,c,b,c,a,b,c,a,e,d,e,b,c,d,e,c,c,c,c,d,c
RandomS101,c,c,c,e,c,e,b,a,d,e,a,a,e,e,d,d,e,e,d,a,e,b,b,e,c,c,b
RandomS102,b,e,e,e,a,a,d,c,a,d,e,a,d,d,e,e,d,d,b,d,a,e,c,b,d,a,b
RandomS103,b,a,c,a,c,b,e,d,e,d,b,a,c,a,a,a,b,a,e,c,b,b,b,d,c,c,e
RandomS104,a,c,e,c,a,a,c,d,e,e,d,b,d,e,a,d,c,c,a,c,b,a,a,a,e,c,a
RandomS105,d,e,a,d,b,c,a,d,d,b,c,b,b,e,d,d,a,e,e,a,a,a,c,e,e,c,d
RandomS106,a,e,d,a,b,c,d,b,d,c,a,b,c,c,e,b,b,c,a,e,c,c,e,a,e,a,d
RandomS107,e,b,c,c,b,d,c,d,d,e,e,e,d,a,e,e,b,d,b,e,b,e,d,b,a,a,a
RandomS108,d,d,b,a,a,d,b,d,e,d,c,d,a,c,a,e,d,b,b,e,e,d,b,c,c,a,e
RandomS109,e,b,b,e,b,b,e,b,a,d,e,c,b,c,c,a,d,e,a,d,a,b,b,e,c,d,b
RandomS110,e,e,a,b,b,a,d,a,b,d,b,a,a,d,b,b,e,b,d,b,d,a,e,d,c,b,e
RandomS111,c,b,b,d,b,e,d,b,a,a,d,b,b,c,a,e,b,b,d,c,a,e,e,b,b,d,a
RandomS112,d,a,a,c,a,a,c,a,d,e,a,d,d,a,e,b,e,a,b,e,b,a,e,c,b,c,d
RandomS113,d,c,a,b,a,e,d,b,c,a,e,c,d,c,e,d,d,b,c,c,a,a,c,d,d,b,c
RandomS114,b,b,d,d,e,e,c,d,e,e,a,e,a,b,e,b,b,c,b,c,c,a,b,b,d,d,e
RandomS115,c,a,d,e,c,e,b,d,e,c,b,b,e,d,b,e,d,b,a,b,a,a,d,a,d,b,b
RandomS116,e,c,c,b,c,a,a,a,c,c,d,b,a,e,e,a,d,a,a,d,c,c,d,a,b,b,e
RandomS117,c,c,d,e,a,e,a,e,e,d,b,b,a,e,c,a,e,b,e,a,e,e,e,a,d,d,a
RandomS118,d,b,d,c,c,c,b,d,c,a,a,e,c,c,e,a,b,a,d,a,e,b,c,c,c,e,c
RandomS119,e,c,b,b,c,c,b,b,a,e,b,c,d,c,c,a,e,d,e,d,d,d,e,c,d,c,d
RandomS120,b,d,b,c,d,e,d,e,b,a,c,e,a,b,d,b,c,e,d,e,e,b,e,d,c,a,e
RandomS121,c,d,c,a,a,b,e,e,e,a,b,e,b,c,b,b,a,e,e,b,e,c,c,d,b,a,d
RandomS122,d,a,a,d,b,d,e,e,b,c,b,a,b,c,a,a,b,e,a,e,a,d,e,d,e,a,b
RandomS123,b,d,a,d,c,e,c,e,d,c,c,a,b,d,a,d,a,e,b,c,d,d,c,e,c,a,d
RandomS124,c,a,c,a,b,d,d,b,a,c,e,b,b,a,b,d,d,c,e,e,e,a,e,e,d,d,a
RandomS125,c,c,d,b,e,d,d,d,e,a,a,b,d,d,b,d,e,b,c,e,c,d,c,a,a,c,c
RandomS126,e,b,c,d,c,e,c,a,b,b,b,a,c,d,b,d,b,b,c,c,b,c,b,e,b,c,d
RandomS127,d,e,d,c,b,d,a,b,e,a,d,d,c,d,c,c,c,c,d,d,a,d,a,a,a,b,b
RandomS128,c,d,c,d,d,b,b,a,b,e,c,e,d,a,d,d,a,a,b,b,e,a,b,a,d,b,c
RandomS129,a,a,b,b,e,b,d,d,a,a,c,e,e,d,b,d,a,a,e,c,d,c,c,e,c,b,a
RandomS130,e,d,a,a,e,d,d,b,e,d,c,a,b,a,b,d,c,c,c,e,a,b,b,d,a,e,d
RandomS131,d,c,a,d,b,b,a,d,e,c,a,a,d,e,e,b,c,a,b,a,a,e,a,d,e,a,c
RandomS132,a,b,c,b,c,e,b,e,c,d,d,c,c,d,d,e,b,b,c,b,b,a,c,a,c,e,a
RandomS133,e,b,b,e,b,e,e,b,a,e,b,d,a,c,d,b,c,a,a,a,c,e,a,c,d,a,b
RandomS134,a,d,b,d,c,a,d,b,a,d,b,b,e,d,e,d,b,e,b,a,c,b,d,c,d,e,b
RandomS135,d,a,c,b,d,c,e,a,a,c,a,c,e,c,a,a,e,d,a,c,d,c,d,e,e,c,c
RandomS136,a,a,b,e,d,b,a,a,e,b,b,c,d,e,a,b,c,e,a,e,b,a,b,e,d,b,e
RandomS137,d,a,d,b,b,a,a,d,e,e,a,e,e,b,c,e,d,b,d,c,a,a,c,b,c,d,a
RandomS138,b,e,e,a,c,e,b,a,c,b,a,e,a,c,b,e,a,b,d,b,d,c,a,e,d,b,c
RandomS139,c,b,a,a,a,a,b,b,b,a,b,a,c,c,e,c,d,b,b,a,d,c,a,c,b,e,e
RandomS140,d,e,a,a,c,a,d,e,c,e,a,a,a,b,d,e,e,e,d,c,a,a,d,b,e,b,e
RandomS141,e,e,b,d,d,a,e,c,b,d,e,d,b,b,d,e,d,b,b,e,e,d,c,e,e,d,b
RandomS142,c,a,c,c,a,b,a,c,b,a,d,b,c,e,c,c,c,c,e,d,b,b,e,c,a,b,e
RandomS143,b,a,d,d,d,c,d,b,a,d,c,a,b,d,c,c,a,c,d,e,e,a,e,d,e,b,d
RandomS144,b,e,a,d,c,d,d,c,e,b,a,c,c,b,d,b,d,a,d,c,d,a,a,b,d,c,c
RandomS145,c,e,a,b,c,a,e,a,a,b,e,e,d,c,a,b,d,c,b,c,a,a,d,b,a,c,e
RandomS146,a,d,e,a,a,a,a,b,c,a,a,c,b,b,a,c,d,a,e,e,a,b,a,b,c,b,d
RandomS147,d,e,d,c,a,d,a,a,d,c,d,a,e,e,e,a,b,a,d,c,d,a,e,e,b,a,a
RandomS148,a,d,e,d,c,c,a,d,d,e,b,e,d,c,a,d,e,d,d,e,e,c,c,a,d,d,b
RandomS149,d,a,a,a,d,b,b,e,c,d,c,a,c,c,b,b,a,d,a,e,e,a,a,c,e,a,b
RandomS150,a,a,c,c,a,b,e,d,c,c,a,e,d,a,e,d,a,e,b,c,d,e,a,d,c,c,a
RandomS151,b,e,c,c,e,b,e,a,a,d,a,d,d,b,a,a,e,a,e,d,c,c,e,a,c,a,c
RandomS152,b,e,e,d,e,e,a,c,e,b,c,b,a,e,a,d,a,b,a,e,d,e,d,b,b,e,c
RandomS153,b,b,a,d,e,b,d,a,c,c,c,d,b,d,c,a,b,a,c,c,e,a,c,d,e,c,e
RandomS154,a,d,a,d,b,e,c,c,a,a,c,e,e,d,a,a,d,a,c,d,e,a,d,a,b,a,b
RandomS155,e,a,e,b,d,b,b,e,e,d,e,b,c,d,e,a,b,e,e,b,e,c,c,c,b,e,e
RandomS156,b,b,d,c,d,d,c,b,a,e,d,c,d,a,a,c,b,b,a,a,c,c,c,a,b,d,d
RandomS157,b,c,e,a,d,b,b,b,d,c,c,c,a,c,d,d,d,b,a,d,b,b,e,b,a,c,b
RandomS158,d,e,c,e,d,d,a,d,d,c,b,b,a,e,d,e,b,d,d,e,d,b,a,b,c,e,d
RandomS159,e,c,b,c,a,a,e,a,a,c,e,a,c,d,b,b,a,b,c,c,a,c,b,a,e,b,c
RandomS160,e,e,d,b,e,c,e,b,e,a,c,c,c,e,e,c,e,a,a,a,e,e,a,c,c,d,d
RandomS161,a,d,a,b,d,a,c,a,b,d,b,c,d,a,b,a,b,c,a,a,a,b,a,c,a,a,c
RandomS162,d,d,c,d,a,c,a,c,c,e,d,c,c,b,e,c,d,a,d,e,b,a,b,e,c,c,b
RandomS163,c,b,d,c,c,c,b,e,b,b,e,a,b,a,d,b,c,d,b,a,c,d,c,a,a,c,d
RandomS164,c,e,b,d,c,c,c,c,d,d,c,d,b,a,a,d,c,a,e,c,e,d,e,c,e,e,b
RandomS165,d,e,b,c,b,a,a,d,d,a,c,c,a,e,e,b,a,b,e,c,d,d,b,d,a,c,b
RandomS166,a,c,b,a,a,a,e,d,e,c,c,e,a,d,a,a,c,d,c,d,a,c,d,e,c,b,d
RandomS167,c,d,b,d,c,d,a,e,e,d,a,a,a,d,c,b,a,b,a,c,b,d,b,e,a,e,c
RandomS168,b,c,c,d,d,a,d,c,e,a,e,e,b,d,c,a,b,c,a,a,d,c,c,b,d,d,a
RandomS169,b,e,e,d,c,a,d,d,c,a,d,d,b,d,b,a,d,c,e,e,a,e,b,b,c,b,d
RandomS170,b,d,a,c,b,a,a,c,c,e,b,d,c,a,e,e,e,c,d,b,e,b,c,a,c,d,c
RandomS171,d,a,c,c,d,c,a,a,d,e,b,b,b,e,b,c,a,b,d,b,e,e,b,e,d,e,c
RandomS172,d,a,c,c,c,c,a,a,c,d,d,c,a,a,b,c,b,b,a,b,a,b,d,e,b,a,e
RandomS173,e,d,c,d,a,a,c,e,d,a,e,c,c,a,e,c,a,e,d,b,a,e,d,a,b,d,c
RandomS174,c,e,c,b,e,a,e,c,b,e,d,e,a,a,b,d,c,e,e,c,d,c,c,c,d,c,e
RandomS175,d,b,e,a,e,a,d,b,b,e,e,c,b,e,c,b,c,d,d,c,e,a,b,a,a,b,b
RandomS176,b,e,c,d,d,c,e,a,d,d,e,d,a,c,d,c,e,b,d,b,d,e,c,a,a,c,c
RandomS177,d,a,c,a,d,e,a,c,b,e,a,e,e,d,c,c,b,e,a,e,c,c,d,c,c,c,b
RandomS178,d,e,e,d,d,b,b,d,b,d,b,e,e,e,c,d,a,d,b,d,c,c,e,a,b,d,b
RandomS179,b,c,b,e,a,c,d,c,d,d,a,c,c,b,d,b,d,b,e,c,e,e,e,d,d,a,a
RandomS180,d,a,b,d,b,a,a,a,b,b,e,c,a,d,a,a,c,d,a,b,c,d,c,c,e,b,c
RandomS181,b,d,d,c,c,b,d,a,e,a,a,c,a,a,a,e,c,b,d,a,b,b,d,a,b,e,a
RandomS182,c,c,e,e,e,a,e,d,e,b,d,c,e,e,a,e,c,a,a,b,b,e,b,b,c,d,e
RandomS183,c,b,d,c,b,d,b,a,d,d,a,d,d,b,d,d,c,d,b,b,d,c,a,d,d,c,e
RandomS184,e,e,d,d,c,b,e,c,e,e,d,a,c,d,a,e,d,b,b,d,e,c,d,d,e,a,d
RandomS185,a,c,c,d,a,a,a,a,b,a,d,c,b,e,e,e,a,e,a,c,e,b,c,e,e,a,e
RandomS186,d,a,d,d,d,a,b,a,c,b,e,c,b,a,b,e,a,d,b,a,b,d,e,e,e,d,b
RandomS187,b,a,e,b,c,c,e,e,c,b,a,b,c,d,b,d,b,e,a,c,e,e,e,d,d,e,d
RandomS188,a,d,d,a,c,b,b,d,b,c,a,b,a,a,a,a,e,a,a,a,e,e,b,c,e,e,a
RandomS189,c,e,c,e,c,b,e,e,d,c,d,d,d,b,d,e,a,e,d,e,a,b,b,e,a,c,b
RandomS190,c,e,a,d,e,a,e,e,e,d,e,d,d,d,d,a,d,c,b,b,d,c,c,b,a,d,e
RandomS191,d,c,c,b,b,b,d,a,e,d,a,a,d,c,a,b,b,c,d,b,e,d,c,e,c,b,d
RandomS192,a,e,a,b,c,e,a,d,c,d,d,b,d,d,b,b,e,a,c,e,e,b,e,e,a,a,e
RandomS193,c,d,c,d,a,b,c,c,c,e,e,a,d,d,e,b,a,d,a,d,b,d,e,a,e,b,c
RandomS194,d,e,a,c,b,c,d,e,e,b,e,e,d,b,a,e,b,a,a,c,a,c,a,c,b,c,d
RandomS195,d,b,d,b,d,d,b,c,d,c,b,b,a,c,c,b,a,e,e,c,e,b,e,c,a,a,e
RandomS196,a,b,b,d,a,a,b,c,a,d,b,b,d,e,d,a,e,c,e,e,c,e,a,c,c,a,b
RandomS197,c,e,c,b,e,e,b,d,e,a,d,e,c,a,d,a,c,d,b,d,e,e,c,c,d,b,b
RandomS198,b,a,b,e,d,d,b,b,a,c,b,e,d,c,d,d,b,b,e,d,c,b,c,c,e,a,d
RandomS199,a,c,d,c,d,b,c,e,a,a,e,a,a,a,b,a,e,d,e,a,a,e,e,a,a,d,d
RandomS200,a,a,c,a,e,b,d,c,e,e,c,d,b,c,e,c,e,a,a,d,e,a,c,d,b,a,a
RandomS201,c,b,e,a,a,e,a,b,c,e,c,d,a,b,c,c,d,b,d,b,b,b,c,b,a,b,b
RandomS202,b,d,e,e,d,d,e,e,b,a,a,a,c,b,c,a,d,a,e,e,d,c,b,e,d,d,a
RandomS203,d,b,b,e,a,b,d,b,e,c,a,b,d,b,d,e,e,c,a,b,d,c,b,b,c,a,c
RandomS204,c,e,d,e,a,c,e,a,b,e,a,a,e,e,a,a,d,a,c,d,e,b,d,c,c,d,c
RandomS205,e,e,a,c,e,c,a,e,b,e,a,e,c,c,b,a,b,c,e,b,b,b,a,a,a,e,c
RandomS206,e,b,a,d,d,d,e,a,d,d,e,c,e,c,d,c,c,b,d,a,e,e,e,e,e,a,c
RandomS207,a,b,a,d,b,e,b,d,a,e,d,e,a,a,a,a,c,e,e,b,e,e,d,e,a,d,c
RandomS208,c,a,e,c,e,b,c,a,b,d,e,c,b,c,c,e,d,d,e,e,b,c,a,a,d,b,a
RandomS209,e,c,b,b,e,e,b,a,e,d,e,e,a,b,c,a,b,b,d,b,c,a,e,b,e,a,e
RandomS210,a,b,d,b,e,b,e,e,e,d,c,a,e,a,c,c,c,b,c,e,b,b,c,a,c,a,c
RandomS211,a,e,d,e,d,b,e,d,e,b,b,d,d,b,e,a,c,c,a,b,b,e,c,c,a,b,b
RandomS212,a,c,b,c,b,a,a,c,d,a,d,e,c,b,c,e,a,a,e,e,d,b,c,b,c,b,e
RandomS213,d,e,b,a,d,d,d,b,b,a,b,e,e,e,a,e,b,c,a,e,d,d,c,d,d,d,b
RandomS214,e,c,e,a,d,a,d,c,c,a,e,d,d,b,e,e,d,d,b,e,c,c,c,b,c,c,c
RandomS215,b,a,a,a,e,c,d,b,b,c,b,a,e,a,d,a,a,d,b,c,d,b,e,a,b,e,a
RandomS216,a,e,b,d,c,d,a,e,b,e,d,c,d,e,e,c,c,c,a,e,a,b,c,e,b,c,a
RandomS217,b,e,d,d,e,d,b,c,c,c,b,e,a,c,a,d,a,d,d,e,c,d,c,b,c,b,a
RandomS218,b,d,d,e,e,d,c,a,c,c,a,a,d,d,c,c,d,c,b,c,d,b,e,b,a,c,e
RandomS219,d,b,d,c,e,b,e,b,e,a,c,d,b,a,e,b,b,d,a,b,c,a,a,c,c,d,d
RandomS220,c,a,a,e,a,a,d,c,b,c,a,d,e,c,a,d,a,a,e,b,a,a,d,a,a,d,b
RandomS221,a,c,b,a,b,a,e,e,b,e,a,d,c,e,a,b,e,e,d,e,b,d,a,a,e,d,c
RandomS222,a,a,a,b,a,b,d,c,d,a,a,b,c,e,d,c,d,e,d,d,d,b,a,e,b,b,e
RandomS223,c,a,d,c,d,d,c,a,e,a,b,b,a,d,e,d,e,e,d,d,a,e,d,e,e,a,d
RandomS224,d,c,d,e,d,b,c,a,a,e,a,a,d,a,c,b,b,d,a,a,a,a,d,c,c,d,b
RandomS225,b,d,a,e,e,a,c,d,a,b,a,a,e,d,a,b,b,b,a,a,e,b,b,b,c,c,d
RandomS226,a,b,b,d,e,e,e,c,d,b,b,c,c,e,c,b,e,e,a,e,d,c,c,e,e,a,a
RandomS227,a,a,c,c,d,b,b,e,b,d,a,e,c,a,b,d,d,b,e,d,c,a,a,d,d,a,d
RandomS228,d,e,a,b,a,d,c,e,c,a,a,d,a,a,c,e,b,b,d,c,b,c,b,c,d,b,e
RandomS229,e,e,c,c,c,b,c,c,c,d,b,e,e,a,a,b,c,a,c,c,a,e,e,b,a,a,e
RandomS230,e,d,a,a,a,b,e,d,c,d,e,b,b,e,e,d,d,a,c,d,d,a,d,e,c,a,e
RandomS231,e,c,b,a,c,b,b,c,c,b,e,a,b,c,d,c,c,d,e,b,d,d,c,e,c,d,b
RandomS232,a,e,a,e,d,a,d,b,e,b,b,e,a,b,d,c,d,a,a,b,e,c,e,c,e,a,e
RandomS233,e,a,e,a,d,c,c,a,b,a,a,d,c,d,a,c,e,b,e,c,b,a,c,a,b,e,c
RandomS234,e,c,e,a,a,e,e,b,a,e,c,b,d,b,a,e,b,a,a,a,d,a,b,e,d,c,a
RandomS235,a,a,e,c,a,c,a,d,c,a,c,e,c,a,c,b,e,d,b,e,b,c,b,a,e,b,b
RandomS236,b,e,a,d,b,a,c,b,d,d,b,b,d,a,e,d,e,a,b,c,c,a,c,e,e,b,d
RandomS237,e,b,a,d,d,c,c,e,c,e,e,a,b,b,b,a,e,a,b,a,a,c,d,b,e,b,d
RandomS238,b,b,c,b,e,d,b,a,d,d,b,d,d,d,b,c,b,c,e,c,d,d,a,d,c,c,d
RandomS239,b,a,a,b,e,b,a,e,a,b,c,a,d,a,b,b,a,c,c,d,c,e,d,d,c,a,c
RandomS240,e,c,b,e,c,c,e,a,d,a,b,a,b,c,e,e,c,b,d,c,d,a,a,b,e,c,d
RandomS241,a,b,e,d,a,c,a,a,a,d,b,d,a,b,a,c,c,a,a,d,b,b,d,e,d,a,d
RandomS242,c,e,b,b,d,e,d,c,e,d,e,b,a,c,c,c,d,e,e,b,e,c,d,b,c,c,b
RandomS243,a,d,d,d,a,b,b,b,a,a,a,a,c,c,a,c,d,b,e,d,b,d,e,b,d,b,b
RandomS244,d,e,b,d,c,e,c,a,b,d,c,c,b,d,a,d,a,b,d,a,e,c,d,d,b,a,a
RandomS245,c,d,b,c,a,b,c,c,a,d,e,d,c,b,c,b,e,a,c,a,a,a,c,c,a,d,e
RandomS246,c,c,b,b,b,c,e,d,e,a,d,c,c,a,e,a,e,c,c,a,e,d,e,d,a,a,c
RandomS247,d,d,a,b,e,a,a,d,e,d,b,e,c,e,d,a,b,e,a,d,e,c,c,c,a,a,b
RandomS248,d,e,e,a,e,b,b,a,c,c,d,c,c,c,b,c,b,a,c,e,a,d,c,d,d,c,e
RandomS249,c,e,a,c,c,a,e,b,c,d,a,d,d,b,c,b,c,e,b,e,e,d,e,a,b,b,b
RandomS250,a,a,a,e,a,a,b,e,d,d,d,c,a,c,b,b,e,a,b,c,b,d,c,b,a,b,e
RandomS251,d,e,e,a,b,d,c,a,a,e,a,a,b,e,b,e,a,a,d,b,c,e,c,a,c,c,b
RandomS252,d,a,b,b,d,e,d,d,b,c,c,c,a,e,b,e,c,e,a,d,b,b,b,d,e,a,e
RandomS253,b,b,a,c,a,e,a,d,b,b,b,a,e,b,e,e,d,e,c,a,d,e,d,d,a,a,c
RandomS254,c,b,b,b,c,d,d,e,e,e,a,b,c,e,d,e,e,a,e,d,a,d,b,d,a,b,a
RandomS255,e,b,c,c,a,e,e,d,b,c,b,c,e,c,c,a,c,e,e,b,c,a,c,c,a,c,c
RandomS256,b,e,d,e,b,c,b,a,e,c,e,d,a,a,a,d,b,a,c,d,e,b,d,e,e,b,d
RandomS257,b,b,c,d,b,d,b,d,a,d,c,e,b,c,e,e,d,d,c,c,c,c,a,a,d,a,b
RandomS258,b,d,e,c,d,c,d,d,c,e,b,a,c,c,a,d,d,b,e,b,c,a,a,d,a,d,a
RandomS259,b,e,b,b,e,c,d,b,a,b,c,c,b,e,b,e,a,b,c,c,b,b,a,b,c,b,a
RandomS260,c,e,c,a,b,b,c,b,b,d,c,e,b,a,c,c,c,d,d,a,a,a,b,e,a,d,a
RandomS261,d,e,c,d,b,a,e,d,b,a,c,c,d,c,a,e,d,b,d,b,e,b,e,d,c,a,b
RandomS262,a,d,a,d,e,d,a,e,b,c,e,a,c,d,c,a,d,e,b,d,a,c,b,b,c,b,a
RandomS263,e,a,b,e,b,a,e,c,c,a,e,e,c,c,a,b,a,c,a,a,b,e,e,e,a,d,e
RandomS264,c,e,b,a,d,b,b,e,d,a,e,b,b,b,e,b,b,c,d,d,b,e,a,b,a,c,b
RandomS265,c,e,a,e,b,d,c,a,e,a,c,d,a,d,a,a,e,c,d,b,e,e,d,b,e,b,d
RandomS266,a,e,a,d,a,b,e,b,c,a,a,e,a,e,a,d,d,e,a,e,e,d,a,a,b,a,d
RandomS267,a,e,c,d,a,d,d,b,b,b,e,e,a,e,a,a,c,c,d,c,a,d,c,c,a,d,e
RandomS268,b,e,a,d,a,d,a,a,a,d,d,b,c,e,a,d,e,e,c,a,b,a,b,e,a,a,c
RandomS269,a,a,c,a,a,c,d,e,a,e,b,d,d,d,a,d,a,d,b,e,e,d,b,e,a,c,d
RandomS270,b,d,e,a,e,b,e,d,e,a,e,a,d,e,c,a,b,a,c,e,b,b,e,a,e,e,d
RandomS271,a,b,c,b,a,c,e,c,a,d,d,b,d,d,b,a,a,e,d,a,e,d,b,c,d,a,e
RandomS272,e,e,d,b,a,d,d,b,e,c,b,c,d,b,e,c,b,a,a,b,c,c,d,e,a,a,e
RandomS273,a,e,a,a,b,a,a,c,d,d,c,d,b,b,c,a,c,d,c,d,b,a,a,e,c,a,c
RandomS274,a,b,c,b,a,b,b,e,c,a,d,e,c,a,d,a,b,c,e,d,d,b,c,b,a,e,d
RandomS275,a,d,e,d,a,a,b,d,e,b,e,e,a,d,b,d,c,b,b,d,e,e,a,a,b,b,e
RandomS276,a,a,c,a,d,c,c,b,c,e,e,a,e,a,d,e,d,a,a,a,c,c,c,c,b,b,c
RandomS277,e,e,e,a,a,e,c,d,b,c,a,b,c,e,c,e,c,c,c,b,a,c,b,a,c,d,b
RandomS278,c,e,c,b,c,d,d,c,c,e,d,a,c,b,a,d,a,d,e,e,d,a,a,a,c,a,a
RandomS279,c,b,d,b,e,a,c,c,d,d,e,c,b,e,a,b,a,b,c,b,e,d,b,b,c,a,e
RandomS280,a,a,a,c,b,e,c,e,b,e,a,b,d,b,e,b,e,b,e,e,c,e,b,e,a,e,a
RandomS281,c,a,e,d,b,b,a,d,e,d,e,b,c,b,c,a,e,d,e,c,a,c,e,c,d,c,b
RandomS282,e,c,d,d,c,e,e,c,a,d,b,d,d,d,d,c,a,c,b,d,a,e,e,d,c,d,b
RandomS283,c,e,a,e,e,b,b,b,e,a,e,d,a,d,e,c,c,d,c,e,d,e,e,d,a,a,c
RandomS284,e,e,b,a,b,e,c,a,b,c,a,e,a,c,d,e,a,b,e,b,b,b,b,c,d,e,e
RandomS285,e,c,d,c,b,c,c,e,b,c,d,b,d,a,e,d,d,d,b,b,e,b,b,e,c,d,b
RandomS286,b,e,b,d,d,c,d,c,b,d,d,c,a,d,c,e,c,a,e,a,b,b,e,e,b,d,c
RandomS287,a,e,c,b,d,b,e,c,e,d,e,d,d,d,c,b,e,e,c,c,e,e,b,a,a,d,e
RandomS288,b,a,c,d,e,a,c,e,d,e,d,e,b,a,e,b,a,a,e,e,c,e,a,c,c,e,e
RandomS289,a,b,d,c,d,a,c,b,a,e,c,c,a,b,c,c,c,d,b,b,b,b,c,d,b,d,b
RandomS290,e,d,d,a,e,b,b,a,d,a,c,c,a,a,b,c,a,d,b,c,e,a,d,c,c,c,c
RandomS291,c,a,a,e,a,d,b,c,e,e,b,a,c,a,b,c,c,d,c,d,d,a,e,d,c,d,c
RandomS292,c,b,d,d,e,a,c,e,b,e,e,b,e,c,b,c,c,d,a,a,a,b,c,c,e,c,e
RandomS293,a,a,b,c,d,d,b,e,d,e,c,e,e,a,a,d,b,e,e,c,e,c,b,d,e,e,b
RandomS294,d,e,a,c,e,a,b,b,c,d,b,e,e,d,e,b,b,a,e,d,e,a,a,d,b,e,a
RandomS295,b,e,b,b,a,d,d,e,e,c,e,c,e,d,a,d,d,e,e,d,e,a,b,d,d,a,e
RandomS296,a,c,e,d,e,b,b,c,d,c,c,c,b,b,c,c,b,b,e,b,b,a,e,c,b,d,d
RandomS297,a,c,e,b,c,e,a,a,c,c,a,b,c,b,b,d,b,b,b,a,c,e,a,d,c,e,d
RandomS298,b,d,c,d,d,a,d,d,a,a,a,e,c,c,e,d,a,b,c,b,b,b,c,a,c,c,b
RandomS299,c,c,c,b,b,e,e,b,a,d,b,d,a,c,c,a,b,c,d,e,e,c,a,a,b,d,e
RandomS300,b,d,a,e,e,a,d,d,d,a,a,c,a,a,d,d,b,a,c,c,c,e,a,d,c,a,e
RandomS301,d,c,a,d,d,b,d,a,d,b,a,e,e,a,a,b,e,d,c,c,a,c,c,b,b,c,a
RandomS302,a,c,c,a,c,c,a,a,e,e,d,b,c,a,b,e,a,d,b,c,a,a,b,d,e,d,a
RandomS303,e,e,a,d,a,e,c,a,c,b,d,b,e,a,a,d,c,b,e,b,d,e,e,c,d,c,e
RandomS304,b,e,e,d,a,a,b,e,a,c,d,d,a,d,b,d,b,c,a,c,b,d,d,d,b,c,d
RandomS305,e,a,b,b,b,d,a,a,d,b,d,a,a,d,e,a,c,a,e,a,d,d,a,c,e,c,d
RandomS306,a,a,e,b,e,d,a,b,b,e,b,e,b,a,b,a,a,b,d,d,e,e,c,b,d,a,a
RandomS307,a,e,d,e,b,e,e,b,e,b,b,a,d,e,d,b,d,d,a,e,e,b,b,b,b,a,d
RandomS308,e,e,b,d,a,d,d,a,d,a,c,d,b,c,b,a,a,a,c,c,b,a,e,e,a,a,b
RandomS309,d,a,c,a,c,b,a,b,e,d,c,e,d,e,e,b,e,c,a,d,d,e,d,a,b,b,c
RandomS310,d,a,c,c,d,b,b,c,c,a,a,a,d,d,e,d,e,e,d,e,a,a,c,a,b,d,a
RandomS311,c,d,c,a,c,d,e,e,c,e,e,c,a,d,c,c,b,c,a,a,d,a,c,d,e,b,b
RandomS312,a,b,e,c,d,a,b,c,c,e,a,d,b,a,e,e,c,a,a,b,c,d,c,d,c,e,b
RandomS313,d,a,d,b,d,a,b,a,e,c,e,d,b,d,c,b,c,d,a,b,e,e,a,d,e,c,d
RandomS314,a,c,a,e,a,e,e,c,b,b,d,e,d,b,a,d,a,d,d,c,e,c,b,c,e,c,c
RandomS315,e,b,c,e,e,e,d,b,a,d,e,a,c,a,b,a,c,a,d,d,e,c,d,a,e,b,e
RandomS316,e,d,c,a,c,a,e,d,e,b,d,b,b,c,a,d,c,a,e,c,e,d,a,c,e,e,c
RandomS317,d,b,e,e,e,b,a,d,c,c,e,c,b,e,b,c,a,b,a,b,c,e,e,c,d,e,d
RandomS318,d,a,e,e,e,c,d,c,e,b,d,c,e,a,d,d,b,c,a,a,d,a,a,b,b,c,d
RandomS319,c,c,c,c,e,b,d,e,b,e,b,e,b,d,b,c,b,a,d,e,e,c,e,d,d,e,c
RandomS320,b,c,a,d,d,c,e,e,c,c,d,e,a,c,c,b,c,d,c,b,d,e,a,c,d,e,a
RandomS321,e,d,b,e,d,a,d,a,e,b,b,c,e,c,a,a,b,d,b,b,a,b,c,c,b,e,d
RandomS322,d,d,e,b,a,c,e,b,b,a,d,e,c,c,e,d,d,a,e,b,b,e,b,c,c,a,e
RandomS323,a,e,a,c,a,d,a,b,d,d,b,d,a,c,b,a,b,b,e,a,a,d,c,a,e,d,b
RandomS324,a,d,d,d,c,c,e,d,e,d,e,c,c,d,c,c,d,c,d,b,d,e,b,c,c,d,d
RandomS325,c,c,d,e,a,d,a,a,e,b,c,a,b,e,b,b,a,a,d,a,d,b,c,a,a,b,a
RandomS326,a,d,b,b,a,e,a,e,a,a,b,d,d,c,e,a,e,c,b,e,c,d,b,b,e,e,b
RandomS327,d,e,b,b,b,d,c,d,b,a,a,d,b,e,a,d,a,e,a,d,c,a,e,b,b,b,a
RandomS328,a,a,a,c,d,b,b,e,c,d,c,b,e,c,a,b,b,c,c,e,a,d,b,d,d,c,e
RandomS329,d,d,c,b,a,a,e,b,a,c,b,e,a,a,c,e,e,e,b,d,a,e,b,d,a,b,c
RandomS330,c,d,a,a,a,d,b,c,e,e,d,c,c,a,d,a,c,c,d,d,c,d,c,b,b,c,c
RandomS331,b,d,b,e,a,c,e,a,e,e,b,e,a,c,a,c,e,c,c,d,a,b,d,d,e,d,d
RandomS332,d,b,e,c,d,e,a,e,b,d,d,d,b,a,d,a,d,a,e,a,d,b,e,e,e,b,b
RandomS333,a,a,e,e,c,d,b,c,d,b,a,c,b,a,c,a,c,c,c,c,e,d,a,e,d,e,e
RandomS334,b,d,d,c,e,a,b,e,d,c,d,b,a,d,c,b,c,d,b,d,d,c,a,d,b,e,b
RandomS335,c,b,e,e,c,e,b,b,c,a,e,d,d,e,a,e,d,e,b,e,d,c,a,c,d,b,e
RandomS336,d,d,a,b,e,c,c,c,a,b,b,e,a,a,d,e,c,d,e,c,d,e,e,d,d,a,b
RandomS337,e,e,a,c,d,d,b,a,e,a,b,b,b,b,c,a,e,b,c,c,b,c,c,a,e,c,b
RandomS338,c,b,e,e,b,e,c,d,d,c,e,a,d,c,c,d,d,a,d,e,a,b,d,c,e,a,c
RandomS339,a,e,b,c,e,d,a,b,b,d,b,d,e,d,c,c,c,d,d,b,b,a,b,d,c,e,e
RandomS340,b,b,c,e,e,d,c,d,c,a,a,d,b,d,e,a,e,d,c,d,c,e,c,a,e,a,d
RandomS341,c,e,a,b,b,e,c,c,d,d,a,a,d,e,b,b,b,b,b,a,b,a,e,d,c,d,c
RandomS342,d,e,b,e,d,d,c,d,e,e,b,c,b,e,a,e,a,e,e,c,a,b,a,e,d,c,d
RandomS343,a,a,a,b,a,c,d,b,c,c,d,d,a,b,c,a,d,a,b,a,a,d,a,e,b,c,c
RandomS344,c,e,e,e,a,e,d,e,d,b,a,d,c,e,a,d,a,e,a,b,a,d,d,d,b,b,b
RandomS345,a,d,e,e,a,e,a,b,a,b,b,a,b,d,b,a,d,b,c,a,a,d,b,b,c,a,b
RandomS346,b,a,d,c,c,b,d,b,a,b,d,e,d,e,e,b,c,a,c,e,d,e,d,a,e,c,b
RandomS347,c,d,d,a,c,e,b,b,e,e,c,b,a,e,d,c,a,c,c,d,d,b,b,b,e,e,a
RandomS348,b,b,b,e,d,c,d,e,e,d,c,c,d,a,a,d,e,c,e,e,d,d,d,d,b,b,b
RandomS349,b,d,d,b,e,a,b,a,b,b,c,e,d,c,d,c,e,c,a,b,c,e,a,a,b,d,e
RandomS350,a,b,b,a,a,a,e,d,c,b,a,d,a,a,e,e,c,d,a,d,a,b,b,d,e,b,c
RandomS351,c,d,c,a,d,e,e,a,e,b,b,c,c,b,e,a,a,a,c,d,a,c,e,a,a,e,c
RandomS352,e,e,e,c,c,d,a,b,c,e,e,d,e,d,a,d,c,e,b,d,e,e,e,c,b,b,e
RandomS353,a,a,d,e,c,a,c,a,a,c,b,c,b,a,e,c,e,b,b,e,e,b,b,e,e,e,d
RandomS354,b,a,c,c,d,e,e,d,e,d,a,d,b,e,d,c,a,c,b,e,b,e,b,d,c,e,a
RandomS355,b,b,c,c,c,b,b,b,c,e,d,a,b,c,d,c,b,d,c,a,c,e,b,e,d,c,a
RandomS356,b,c,b,c,c,c,e,e,a,a,a,a,a,c,c,a,b,a,d,e,e,e,d,a,d,e,d
RandomS357,e,b,c,d,a,b,c,c,c,d,b,c,b,d,e,a,c,b,c,c,a,d,b,b,a,a,a
RandomS358,b,b,a,d,c,c,c,c,e,a,a,b,d,a,e,b,d,d,e,d,e,b,d,b,d,b,c
RandomS359,b,c,a,b,e,a,e,a,e,e,b,b,d,b,b,e,a,b,e,d,a,c,b,a,a,d,e
RandomS360,e,e,a,d,b,d,d,c,a,c,e,a,e,e,c,c,c,a,b,d,c,a,c,e,d,e,a
RandomS361,d,a,e,a,b,e,a,b,c,c,a,d,b,c,b,d,b,e,e,e,e,e,b,c,e,d,c
RandomS362,c,d,c,c,d,e,b,c,e,b,e,d,e,c,a,d,b,e,d,d,c,d,d,b,b,e,d
RandomS363,a,e,a,a,b,a,d,e,b,a,e,a,d,c,a,e,b,b,d,d,e,b,a,d,b,c,a
RandomS364,d,b,c,c,d,c,a,c,a,c,e,d,a,c,e,d,b,d,b,d,c,c,e,e,e,d,c
RandomS365,c,e,b,b,c,b,a,a,c,d,e,e,d,d,e,e,d,d,c,a,d,e,c,a,b,c,e
RandomS366,e,b,d,e,c,a,e,b,d,b,d,b,d,d,a,b,b,a,c,e,b,e,a,d,b,d,d
RandomS367,d,b,a,e,b,b,a,d,b,c,e,c,d,d,c,d,e,b,d,a,d,e,c,c,e,c,d
RandomS368,a,d,e,b,c,d,c,c,a,a,c,c,c,c,d,d,e,a,d,e,b,d,d,a,c,e,c
RandomS369,e,b,e,e,e,b,c,b,a,e,e,e,d,b,a,c,e,e,a,a,d,a,c,e,e,c,c
RandomS370,e,c,b,e,c,e,a,d,d,d,a,c,a,e,e,e,a,a,a,c,d,b,b,b,c,d,b
RandomS371,e,b,d,a,b,c,b,b,b,a,b,e,d,a,b,e,a,c,c,e,c,b,b,d,d,d,a
RandomS372,c,b,a,d,c,e,e,b,c,b,c,c,a,b,a,d,b,a,d,d,c,a,a,e,e,d,c
RandomS373,a,e,a,a,a,b,d,d,a,a,c,e,c,d,c,b,e,e,d,c,a,b,a,a,a,b,a
RandomS374,c,d,e,e,c,d,c,e,d,b,c,b,c,e,a,e,c,b,b,c,e,a,a,e,b,c,b
RandomS375,d,e,e,a,e,b,b,a,d,b,b,d,b,c,a,c,e,a,c,e,a,a,e,c,c,e,b
RandomS376,a,b,b,d,b,d,a,e,d,e,b,e,b,a,d,a,d,a,b,a,b,c,b,e,e,b,d
RandomS377,d,d,a,d,b,a,c,a,c,a,a,e,e,d,c,c,c,e,d,b,b,e,b,e,b,e,c
RandomS378,e,d,c,e,d,e,b,b,e,a,a,c,e,c,e,c,c,e,b,b,a,e,b,c,d,a,c
RandomS379,a,d,a,b,e,a,a,b,e,b,e,e,b,a,c,c,a,a,b,e,a,d,d,e,d,b,c
RandomS380,c,c,d,b,b,b,d,b,c,d,d,b,e,c,c,b,c,a,e,e,b,a,d,e,c,c,e
RandomS381,d,c,e,b,c,b,a,d,b,c,e,c,c,a,a,c,b,a,c,d,b,b,e,c,a,a,d
RandomS382,b,d,c,d,d,a,a,b,c,c,e,a,d,b,a,e,b,a,b,e,d,a,e,c,a,c,e
RandomS383,e,e,c,a,b,b,d,a,b,d,a,d,a,b,c,c,a,e,d,a,d,a,a,e,d,e,d
RandomS384,c,b,c,a,b,c,e,a,a,b,b,e,b,d,e,d,b,a,e,a,e,a,b,d,d,a,e
RandomS385,d,d,e,d,d,c,c,b,b,e,a,b,e,b,b,d,c,b,d,e,a,d,b,b,d,d,a
RandomS386,d,d,b,d,b,d,c,c,d,e,c,b,c,b,b,e,e,d,a,c,a,d,b,d,e,a,b
RandomS387,e,c,c,e,c,a,d,e,b,c,d,d,a,a,d,e,e,d,c,c,a,d,e,e,a,c,d
RandomS388,e,c,d,c,a,c,a,c,c,a,d,d,d,a,c,d,c,a,e,c,a,a,b,e,a,e,a
RandomS389,e,b,c,a,e,e,d,b,a,b,e,e,b,b,b,d,b,b,e,b,d,a,b,c,b,b,c
RandomS390,b,d,d,d,d,e,d,a,c,d,e,e,a,d,b,c,c,d,e,e,b,e,c,d,b,d,b
RandomS391,a,a,c,c,e,c,e,a,d,b,b,b,c,c,c,c,a,c,c,a,e,a,c,a,e,d,c
RandomS392,e,c,d,b,e,d,e,d,c,a,d,b,d,a,a,a,a,e,d,d,b,a,a,d,c,e,c
RandomS393,e,c,e,d,a,e,c,c,b,d,c,a,b,a,c,d,d,d,e,c,e,e,e,c,c,e,a
RandomS394,e,e,d,b,e,b,b,a,b,d,b,b,b,d,a,a,a,e,c,b,b,d,d,a,a,a,c
RandomS395,d,b,c,d,d,a,a,e,a,c,a,a,a,c,b,b,d,b,d,c,c,b,c,d,b,d,b
RandomS396,a,b,c,d,d,a,c,e,d,c,d,d,b,d,c,e,c,c,a,c,a,e,a,d,b,b,e
RandomS397,d,e,b,e,b,c,b,c,c,c,e,d,d,c,d,b,e,d,e,d,d,d,a,e,b,a,b
RandomS398,c,a,d,a,e,b,e,e,e,b,c,e,b,b,a,c,e,a,e,b,c,b,c,d,e,d,c
RandomS399,e,a,a,d,e,a,b,a,d,e,e,b,c,e,a,e,b,a,c,e,b,e,d,d,c,b,d
RandomS400,e,e,d,d,c,a,a,e,a,e,e,c,b,e,c,b,b,a,b,b,a,d,d,d,d,c,b
RandomS401,a,c,a,e,d,d,d,b,a,c,a,e,c,c,e,d,d,a,b,e,a,b,c,a,d,a,d
RandomS402,c,b,a,e,e,e,d,c,c,b,d,e,e,c,a,e,e,a,d,e,b,e,e,c,b,a,c
RandomS403,d,d,a,a,d,e,a,c,d,c,e,e,d,b,b,b,b,b,c,b,a,e,d,d,b,c,e
RandomS404,b,a,c,b,d,c,b,e,e,d,e,d,c,a,c,d,a,b,a,c,d,d,c,d,a,a,c
RandomS405,e,c,a,b,e,b,a,b,e,e,e,e,d,a,e,a,e,b,c,c,c,b,e,a,e,c,d
RandomS406,e,e,c,b,c,c,d,e,e,d,c,d,b,e,a,a,e,b,e,c,b,a,b,d,a,c,b
RandomS407,d,d,a,e,d,d,a,a,b,a,c,c,a,c,c,e,b,a,e,d,c,e,e,c,a,d,e
RandomS408,e,e,b,c,e,c,a,b,c,e,a,d,b,d,c,b,d,b,d,c,d,b,a,e,c,c,c
RandomS409,b,a,c,e,e,a,c,a,d,e,e,c,e,d,c,d,d,a,d,a,d,d,e,e,e,a,d
RandomS410,b,b,e,c,c,a,b,a,e,a,a,d,e,d,a,e,a,b,a,d,c,c,c,e,e,e,c
RandomS411,b,e,a,a,a,b,a,c,a,d,e,b,b,e,d,e,c,c,e,a,c,e,e,e,c,c,b
RandomS412,c,c,c,b,b,e,b,d,c,d,e,b,c,d,e,c,e,b,a,a,c,c,e,a,e,c,a
RandomS413,b,a,c,b,b,e,e,d,c,e,e,b,b,a,d,a,c,e,b,a,b,c,d,e,d,d,c
RandomS414,c,c,b,d,b,d,c,a,b,b,c,d,d,b,d,e,b,e,e,a,b,d,d,c,d,a,c
RandomS415,c,a,d,c,a,c,b,c,c,c,d,d,e,b,a,d,d,d,d,e,b,a,b,a,a,a,e
RandomS416,c,d,c,d,e,b,a,b,e,b,a,d,d,e,a,e,c,d,a,a,e,b,a,e,c,b,c
RandomS417,b,c,d,d,b,b,a,e,c,c,d,c,e,c,d,d,e,d,c,e,d,b,c,c,b,d,a
RandomS418,a,a,c,d,b,e,b,d,a,e,e,b,a,d,d,e,a,b,d,a,b,e,e,e,c,d,a
RandomS419,c,e,a,e,a,d,b,d,d,c,d,b,c,c,b,e,a,d,b,d,d,b,b,c,d,b,e
RandomS420,b,d,d,e,e,e,d,b,b,d,c,d,b,d,a,e,c,b,c,d,b,e,b,b,b,a,c
RandomS421,c,a,d,e,b,a,b,e,b,c,a,d,c,b,e,a,d,d,a,e,c,d,c,d,c,e,d
RandomS422,e,d,c,d,e,b,e,a,d,e,a,b,d,d,d,b,d,b,d,b,b,a,c,c,c,e,d
RandomS423,e,a,d,e,c,b,e,e,e,c,e,d,e,b,d,e,a,a,b,a,d,e,a,c,d,d,b
RandomS424,b,a,c,c,d,a,e,b,d,c,a,a,e,b,c,c,d,c,e,a,b,c,e,d,c,a,e
RandomS425,a,e,b,a,c,e,b,a,b,c,c,e,a,a,d,d,e,a,d,e,c,a,d,a,e,b,a
RandomS426,b,c,a,c,b,b,c,b,c,b,c,b,d,e,c,c,c,c,c,c,c,a,a,e,e,c,b
RandomS427,e,d,c,a,a,e,b,d,e,b,b,d,e,a,c,a,b,b,c,e,a,c,e,b,a,d,c
RandomS428,e,b,d,e,b,e,b,c,c,c,d,b,c,c,d,a,e,e,e,e,d,b,a,b,c,b,a
RandomS429,b,c,c,b,c,c,d,d,d,e,a,e,e,b,d,b,c,e,d,e,d,a,b,d,d,d,a
RandomS430,d,c,e,e,d,c,d,e,d,e,e,a,c,e,e,a,a,a,e,b,b,e,e,a,a,d,a
RandomS431,c,c,a,d,b,e,a,d,b,b,e,d,c,c,b,d,d,e,e,e,c,b,c,a,a,c,a
RandomS432,e,e,d,b,a,c,a,a,c,a,b,d,d,e,c,a,d,c,e,d,e,e,a,c,a,e,a
RandomS433,c,d,a,e,a,c,e,d,c,e,d,e,c,a,e,e,e,b,e,b,c,b,c,a,b,c,b
RandomS434,b,c,b,d,e,e,a,a,b,c,b,b,a,a,d,b,c,e,e,c,e,d,b,a,b,e,a
RandomS435,b,c,c,e,a,a,a,e,a,b,b,c,a,d,b,e,d,e,a,d,b,a,a,b,b,d,d
RandomS436,b,d,b,c,a,b,c,d,a,a,d,e,d,b,b,a,a,e,e,a,e,a,c,b,d,e,a
RandomS437,c,d,c,b,e,e,a,a,d,e,a,a,b,d,e,c,e,e,d,c,e,a,e,d,e,d,b
RandomS438,d,a,a,b,c,b,d,c,a,e,a,d,c,c,a,c,b,c,d,b,d,e,a,c,d,b,d
RandomS439,b,d,b,b,e,c,a,d,d,d,d,a,d,d,c,a,c,b,b,c,d,d,e,c,a,e,a
RandomS440,d,b,c,c,a,d,a,a,d,c,d,e,c,d,a,c,e,c,e,c,e,e,e,a,b,b,a
RandomS441,a,c,c,a,c,e,a,d,b,b,e,b,b,a,b,a,d,a,b,c,d,e,e,c,c,e,e
RandomS442,b,d,b,d,b,d,b,a,b,b,a,a,b,c,a,e,a,d,d,a,a,c,e,c,c,e,d
RandomS443,c,a,e,e,c,b,b,d,c,a,c,c,d,c,b,a,d,d,c,e,b,e,b,b,d,d,a
RandomS444,a,b,d,a,a,e,d,d,b,a,c,c,d,d,e,a,c,a,e,d,e,a,a,b,b,d,a
RandomS445,d,d,c,c,e,e,e,a,e,d,c,d,c,d,c,d,e,a,a,b,e,b,a,b,e,a,a
RandomS446,e,a,c,d,a,b,e,a,b,d,e,c,d,e,d,e,b,d,c,b,b,c,b,c,d,a,b
RandomS447,a,a,d,d,b,a,e,b,b,b,e,b,c,c,c,b,a,e,e,c,e,d,e,d,e,d,e
RandomS448,c,e,d,b,d,a,a,e,e,a,d,d,c,d,a,e,a,b,b,b,a,d,a,a,a,d,b
RandomS449,c,b,b,c,c,e,c,d,a,d,a,b,e,b,b,e,a,b,e,b,e,a,e,a,d,a,b
RandomS450,c,c,e,c,e,c,d,e,c,d,c,b,a,b,c,a,e,a,a,b,c,d,a,d,c,a,e
RandomS451,b,c,e,c,d,c,c,e,a,d,e,e,e,d,a,d,c,b,e,b,d,b,e,a,d,e,b
RandomS452,e,c,b,d,a,d,c,b,d,b,a,b,c,d,d,c,d,e,b,a,a,d,d,e,e,e,e
RandomS453,e,d,d,b,d,c,e,e,e,e,b,b,e,d,e,b,c,e,c,a,a,b,a,c,d,b,d
RandomS454,d,e,d,c,c,c,c,a,d,a,b,d,c,d,a,c,a,d,e,e,d,a,a,d,b,c,d
RandomS455,c,d,a,a,b,c,d,b,a,d,c,a,d,b,a,e,e,b,e,e,a,d,a,e,d,c,e
RandomS456,b,b,d,e,d,b,e,b,e,c,e,e,a,c,c,d,e,d,b,d,d,c,d,b,a,d,d
RandomS457,b,b,b,e,b,a,c,c,b,a,e,a,c,e,e,b,d,d,a,a,d,c,d,a,e,c,d
RandomS458,d,c,c,c,a,e,a,b,e,a,e,b,e,c,e,a,d,d,d,e,a,a,b,c,c,c,c
RandomS459,e,b,c,c,e,c,a,e,e,a,c,b,c,d,d,d,c,c,d,b,e,d,a,d,e,b,d
RandomS460,a,e,e,c,a,d,a,a,b,b,e,b,b,a,c,a,b,b,d,c,b,b,c,d,b,a,a
RandomS461,d,a,c,c,b,a,c,d,e,e,e,a,b,c,b,c,c,b,d,e,c,b,b,b,c,e,c
RandomS462,b,d,a,a,d,a,c,d,d,a,a,e,e,c,c,b,b,d,a,b,b,b,a,c,d,a,c
RandomS463,b,d,c,d,a,a,e,a,c,d,b,e,b,e,c,a,d,e,e,a,e,e,d,e,c,c,c
RandomS464,d,b,d,e,a,b,d,b,b,c,e,e,a,b,a,c,e,c,a,c,d,b,d,b,a,d,b
RandomS465,a,d,a,d,e,c,c,d,a,a,d,b,c,a,e,a,e,b,b,b,c,e,a,d,e,c,e
RandomS466,a,b,e,c,d,e,c,c,b,b,d,e,e,c,c,e,b,e,a,d,c,e,b,a,c,c,b
RandomS467,e,b,e,e,b,c,b,a,b,d,d,c,e,c,a,e,a,e,c,c,b,c,d,d,b,e,e
RandomS468,e,e,d,a,c,a,c,a,a,c,d,a,c,c,a,e,e,a,d,e,e,c,d,e,e,b,e
RandomS469,d,d,d,e,d,c,d,d,a,e,b,b,a,e,b,d,a,e,c,a,a,c,c,e,c,d,a
RandomS470,e,c,d,c,b,c,c,c,b,d,c,e,d,e,e,d,d,c,e,e,b,b,a,e,c,e,a
RandomS471,a,b,b,e,e,e,a,a,e,a,e,b,d,c,e,e,a,a,c,a,b,a,b,b,a,e,b
RandomS472,d,a,e,e,c,c,e,e,a,d,e,d,a,a,c,d,e,a,b,d,a,b,c,d,a,b,a
RandomS473,d,b,d,c,a,b,c,e,d,d,e,c,b,e,e,b,c,c,e,d,e,d,c,c,c,d,c
RandomS474,a,e,e,b,c,b,e,c,b,b,e,c,e,e,e,b,b,b,b,a,d,e,d,c,e,b,b
RandomS475,d,b,d,d,a,c,b,a,b,e,e,c,d,d,b,a,e,a,d,b,c,e,a,e,d,b,c
RandomS476,b,a,a,e,a,e,a,d,c,b,a,d,b,e,c,c,b,a,c,e,a,c,d,e,c,d,c
RandomS477,b,c,a,e,d,e,c,e,b,e,e,d,b,d,b,d,e,a,d,e,b,b,d,e,d,b,d
RandomS478,b,d,b,c,e,c,e,b,b,e,d,c,c,c,a,b,b,b,e,d,d,c,c,c,a,d,a
RandomS479,a,b,d,b,d,c,d,b,b,c,d,d,a,e,a,a,b,d,e,e,e,d,b,b,e,b,e
RandomS480,c,d,b,e,a,e,b,b,b,c,d,e,a,a,c,d,a,a,b,b,a,a,c,c,a,c,b
RandomS481,a,e,d,a,e,a,c,c,d,a,c,d,e,b,b,e,b,c,b,e,c,e,e,d,d,c,e
RandomS482,a,b,c,a,d,e,a,c,b,b,c,d,c,b,a,c,e,d,c,d,e,d,e,c,a,d,a
RandomS483,b,d,e,e,a,a,d,a,b,c,c,e,e,e,b,d,d,c,b,d,d,c,c,d,c,c,c
RandomS484,a,b,e,e,e,a,e,d,a,b,e,c,e,a,b,d,d,c,d,b,a,e,e,b,d,d,c
RandomS485,d,a,d,b,e,d,e,c,b,e,a,d,a,c,d,e,b,e,c,d,d,d,c,c,e,d,c
RandomS486,d,b,b,d,a,a,d,d,b,b,b,c,c,b,a,d,b,d,b,c,d,a,b,a,b,b,e
RandomS487,e,b,e,a,a,c,c,a,c,e,a,d,a,d,e,b,b,c,b,d,b,b,b,a,d,d,e
RandomS488,a,b,b,c,e,e,c,e,e,e,e,d,d,c,a,b,c,d,e,a,a,a,a,c,e,b,b
RandomS489,c,d,c,a,d,e,e,a,c,c,b,e,c,d,d,b,c,d,b,c,c,a,a,c,a,b,a
RandomS490,e,a,b,e,a,d,e,b,c,c,d,d,a,b,b,b,a,b,c,d,d,c,e,d,a,a,c
RandomS491,b,a,d,b,e,c,c,d,d,e,d,a,a,d,d,e,d,a,b,b,b,d,d,b,e,a,d
RandomS492,a,e,b,b,b,b,e,a,c,d,c,b,e,a,d,e,c,a,b,b,c,a,e,c,b,b,d
RandomS493,c,b,c,d,c,e,c,d,d,d,b,c,b,b,b,a,e,c,a,a,e,d,a,e,b,a,a
RandomS494,d,c,b,d,b,d,a,b,d,c,a,e,e,e,d,e,b,b,c,a,e,b,e,c,b,b,e
RandomS495,b,e,c,e,b,a,e,d,c,b,c,d,c,e,b,b,b,a,a,a,d,d,d,d,a,a,d
RandomS496,a,b,b,d,e,c,e,c,d,a,e,a,d,a,e,a,e,e,b,a,d,e,c,d,e,e,a
RandomS497,c,e,e,e,b,b,a,d,e,c,a,c,a,b,d,d,b,e,c,e,c,d,e,b,a,b,b
RandomS498,d,c,c,e,d,b,a,b,e,c,b,e,d,b,e,a,a,c,e,b,b,c,b,a,b,e,c
RandomS499,e,c,b,d,a,d,b,b,c,d,d,c,d,a,d,d,a,a,a,d,c,b,e,d,e,d,b
RandomS500,a,b,e,a,b,c,a,e,e,c,e,b,a,c,a,c,d,b,b,c,d,e,b,a,b,c,a
RandomS501,c,a,e,d,e,c,c,e,b,d,b,d,d,a,c,d,e,a,a,e,e,c,c,a,a,a,a
RandomS502,a,c,c,b,e,e,e,d,e,b,c,d,e,a,d,a,a,e,a,e,d,c,e,a,d,b,e
RandomS503,a,c,a,b,c,b,a,b,a,c,c,e,d,b,d,c,e,e,c,a,d,e,b,d,c,d,d
RandomS504,d,e,a,d,d,d,a,e,e,b,d,c,b,d,e,d,b,c,d,e,b,c,b,e,c,a,a
RandomS505,e,d,e,c,d,b,a,a,e,c,b,d,c,a,c,e,d,c,c,d,e,c,c,d,c,c,c
RandomS506,d,d,c,c,d,e,e,a,a,e,c,d,d,d,c,e,c,c,e,c,b,c,a,a,d,d,d
RandomS507,b,c,c,b,b,b,a,d,b,e,a,d,d,e,c,e,d,a,c,a,e,d,d,b,e,a,b
RandomS508,d,e,c,a,e,a,a,a,e,e,d,d,c,c,b,b,b,a,d,c,a,c,b,c,c,e,b
RandomS509,d,e,b,b,c,e,b,d,a,e,e,d,a,e,d,a,e,e,b,c,e,a,a,d,d,d,b
RandomS510,c,b,d,d,e,d,d,b,e,c,c,d,a,c,b,a,e,a,e,d,b,e,a,a,e,d,c
RandomS511,b,d,e,a,c,d,d,d,c,e,b,e,a,e,e,b,a,b,d,d,c,a,b,b,c,b,d
RandomS512,a,d,e,b,b,b,b,b,a,b,a,b,e,a,c,b,a,b,e,c,c,e,e,a,d,a,b
RandomS513,d,b,a,a,e,c,b,b,a,c,d,e,c,e,e,a,c,e,b,c,e,d,a,d,b,c,c
RandomS514,d,d,a,c,a,a,b,e,b,d,a,c,a,e,b,b,e,d,c,b,a,e,c,a,c,c,e
RandomS515,e,c,a,b,b,b,a,a,d,c,d,d,b,a,e,e,c,d,a,a,e,e,b,b,b,a,e
RandomS516,c,c,e,c,b,e,b,c,b,b,a,a,b,c,a,d,e,a,b,a,c,e,d,c,d,e,e
RandomS517,e,d,c,c,b,d,e,d,a,a,c,b,e,b,a,b,b,b,a,c,b,e,d,a,e,d,e
RandomS518,c,e,c,c,b,c,c,c,d,e,d,e,c,e,c,d,e,a,b,d,c,d,c,e,a,c,c
RandomS519,a,d,c,c,a,e,c,e,b,a,c,e,a,e,e,e,d,c,e,b,b,c,d,b,c,e,b
RandomS520,e,e,e,c,e,a,c,e,c,e,b,d,e,d,d,a,c,b,d,c,c,a,d,c,b,e,b
RandomS521,d,b,c,b,c,a,a,a,c,e,a,e,b,e,a,a,e,b,b,c,b,d,b,b,a,c,b
RandomS522,b,b,e,b,d,c,c,c,a,d,d,e,b,b,d,d,a,e,a,a,e,d,d,e,e,c,b
RandomS523,b,d,c,d,c,b,c,b,b,a,d,a,b,d,a,d,c,a,c,d,c,d,e,b,d,e,b
RandomS524,e,c,a,c,b,e,c,d,c,d,a,e,e,b,a,b,d,d,a,e,b,c,d,d,a,d,b
RandomS525,a,b,b,a,e,e,c,d,c,d,e,c,e,d,a,b,c,c,b,d,d,b,e,b,d,a,e
RandomS526,b,d,b,e,d,c,c,b,b,c,b,b,c,d,e,b,b,e,c,a,a,b,b,d,a,d,a
RandomS527,d,e,d,d,e,e,a,b,e,e,e,b,b,e,e,c,e,e,a,b,d,e,c,d,e,c,b
RandomS528,e,e,c,d,c,d,b,c,a,e,c,d,c,d,d,c,e,b,c,c,e,c,b,a,b,b,d
RandomS529,b,e,c,d,d,c,c,d,e,b,b,e,d,b,c,c,c,b,d,c,c,a,d,d,b,e,d
RandomS530,e,e,e,b,b,e,c,e,b,b,c,c,a,b,d,b,d,a,e,b,a,a,d,e,d,c,d
RandomS531,d,c,a,c,d,b,b,d,b,b,a,c,c,e,c,c,b,b,a,e,a,c,b,a,c,c,a
RandomS532,c,c,e,b,b,d,d,d,e,a,e,c,d,b,c,c,c,a,c,b,d,b,e,c,d,b,e
RandomS533,a,d,e,d,a,c,d,a,a,c,d,b,b,a,d,c,e,a,a,d,e,b,a,c,d,e,c
RandomS534,e,a,d,d,d,d,a,a,d,c,b,e,c,a,b,a,c,a,c,a,a,a,b,a,c,c,a
RandomS535,b,e,d,e,a,c,c,a,b,c,d,b,d,d,d,d,b,a,a,b,b,b,c,a,e,e,c
RandomS536,b,d,a,e,c,c,a,c,d,b,a,b,c,b,c,a,a,d,d,d,a,d,c,c,c,c,e
RandomS537,d,e,e,d,a,e,e,a,a,d,e,b,a,c,a,e,b,d,d,b,d,c,d,c,d,a,c
RandomS538,d,a,e,d,e,d,e,d,e,c,b,b,c,e,b,b,a,d,a,e,a,e,b,b,b,c,b
RandomS539,d,d,a,e,a,d,d,e,b,a,b,b,e,b,e,a,d,a,e,e,a,a,d,d,c,e,e
RandomS540,d,c,d,a,a,a,b,b,e,a,d,a,a,e,b,b,a,d,a,b,a,c,d,a,d,e,e
RandomS541,e,e,c,e,a,c,a,c,b,c,a,e,b,b,a,a,b,d,a,b,a,e,b,d,c,e,e
RandomS542,d,a,a,a,d,c,e,d,a,d,c,a,c,d,c,e,c,d,b,d,c,d,a,b,a,c,c
RandomS543,a,e,c,e,e,c,b,b,d,e,e,d,b,c,d,a,b,b,a,d,a,c,c,e,e,d,d
RandomS544,e,a,a,e,b,d,c,c,e,d,d,c,a,a,d,c,d,c,d,d,a,c,a,b,c,d,a
RandomS545,e,b,b,b,e,b,d,d,b,a,a,a,e,c,e,d,e,b,e,b,b,d,c,c,c,e,b
RandomS546,a,e,c,a,b,b,a,c,a,c,b,b,e,b,d,a,c,d,c,a,e,d,d,c,c,e,a
RandomS547,c,e,e,c,a,b,b,c,c,e,d,b,e,e,a,b,e,e,d,d,e,b,b,c,c,e,e
RandomS548,e,d,b,a,a,e,a,a,c,a,b,a,c,b,e,d,d,e,b,d,e,d,b,b,b,b,b
RandomS549,d,e,e,d,d,d,e,a,c,e,b,c,b,b,e,c,a,c,b,d,c,e,d,e,d,a,e
RandomS550,b,b,d,a,c,c,a,e,c,d,a,e,e,d,e,c,e,d,a,e,a,e,c,d,c,a,d
RandomS551,a,a,e,c,b,e,b,d,e,d,e,b,d,d,b,b,e,b,b,b,c,d,b,d,a,c,e
RandomS552,e,e,a,d,e,a,a,c,d,b,d,a,b,e,c,a,c,d,c,c,c,d,b,c,d,c,a
RandomS553,d,d,d,e,b,e,b,e,c,e,e,b,a,e,a,e,e,a,c,a,d,a,a,e,d,d,b
RandomS554,c,d,a,c,d,c,d,e,b,a,d,a,d,e,d,b,b,b,e,b,d,a,d,b,b,b,b
RandomS555,d,a,e,a,c,a,c,d,d,c,b,a,c,d,b,c,d,b,b,b,e,c,d,a,c,d,a
RandomS556,e,c,c,b,a,b,c,a,c,e,b,b,e,a,d,d,d,c,d,a,d,c,c,a,e,c,b
RandomS557,c,d,e,e,d,d,e,c,b,d,b,e,c,c,a,c,d,c,d,d,e,d,c,b,d,d,d
RandomS558,c,e,b,c,e,d,c,b,d,d,d,e,e,e,d,e,e,b,c,d,e,d,d,e,a,e,d
RandomS559,c,d,a,b,c,a,c,c,b,b,e,a,d,b,b,c,b,b,a,e,d,e,a,b,c,e,c
RandomS560,e,d,e,e,b,c,b,b,c,d,e,d,c,a,c,d,b,a,b,e,b,c,e,d,c,a,a
RandomS561,e,a,d,e,d,c,e,e,c,b,b,c,a,a,e,b,a,d,a,c,d,e,d,e,d,a,a
RandomS562,b,e,d,d,e,a,a,b,b,b,c,a,b,c,a,e,c,e,c,d,e,e,d,c,d,a,e
RandomS563,a,d,a,e,e,c,c,b,a,e,d,e,a,b,e,b,e,e,d,b,b,e,b,a,e,d,c
RandomS564,e,b,a,c,d,d,d,a,d,d,c,e,d,e,d,b,d,c,a,a,a,d,c,c,d,b,a
RandomS565,d,e,b,d,c,c,a,d,c,c,a,a,b,c,c,e,a,a,d,c,c,a,a,a,c,b,d
RandomS566,b,a,c,b,d,c,b,a,a,e,a,d,a,d,e,e,e,c,d,e,d,c,c,e,e,a,a
RandomS567,b,a,d,b,a,d,a,a,c,d,e,a,c,b,a,c,c,d,d,e,b,b,b,b,e,e,b
RandomS568,e,d,c,e,b,d,c,c,c,a,e,e,c,b,a,e,b,e,a,b,b,b,c,b,c,b,a
RandomS569,a,b,c,d,b,a,b,b,b,e,e,e,c,e,d,b,e,d,e,d,a,e,c,e,d,e,b
RandomS570,d,c,d,d,e,e,b,b,e,a,c,b,c,b,a,d,b,c,d,c,a,b,a,b,d,e,e
RandomS571,a,a,e,a,c,b,d,a,e,a,d,a,d,e,d,c,b,c,c,c,b,a,e,d,e,d,b
RandomS572,c,e,a,d,b,d,e,d,d,e,e,c,a,c,e,d,b,b,a,b,b,a,e,e,c,c,d
RandomS573,a,a,e,e,d,b,a,d,b,e,e,d,a,e,c,e,a,a,c,d,b,a,a,a,b,e,b
RandomS574,e,b,e,d,c,d,b,c,d,b,d,c,c,d,d,c,a,e,e,a,d,c,e,e,a,c,c
RandomS575,b,a,d,b,a,e,a,d,c,e,b,b,b,d,e,a,d,e,d,b,b,b,a,e,b,c,b
RandomS576,e,a,a,c,d,c,a,c,d,a,d,a,d,a,d,a,a,c,b,b,e,c,e,d,a,c,d
RandomS577,c,b,a,b,a,b,a,c,e,d,a,c,e,e,e,a,e,b,b,c,b,e,e,a,b,d,e
RandomS578,a,c,a,a,e,c,b,c,b,a,c,a,e,b,a,b,d,c,c,b,e,d,b,e,e,a,d
RandomS579,c,e,e,e,d,b,b,a,c,a,b,d,b,a,c,e,a,e,e,e,a,c,a,c,c,c,e
RandomS580,c,e,b,b,d,c,b,c,a,a,a,e,c,a,c,c,c,d,e,a,c,b,b,d,e,e,c
RandomS581,b,b,d,e,a,c,a,d,a,d,e,d,a,d,b,b,b,b,b,e,d,b,d,e,b,d,a
RandomS582,e,e,d,e,e,a,b,e,c,b,b,d,b,a,c,b,e,e,a,a,a,a,a,c,b,d,e
RandomS583,c,a,a,a,d,a,b,a,a,a,b,a,a,b,c,b,d,c,b,c,b,e,c,a,b,d,b
RandomS584,c,a,a,c,e,a,e,c,b,b,e,a,d,c,c,c,e,b,e,e,c,b,a,b,e,a,e
RandomS585,b,c,e,b,b,c,e,a,b,d,c,e,c,b,a,c,b,b,d,c,e,d,c,a,a,b,d
RandomS586,d,b,a,b,e,a,a,b,a,a,c,e,d,b,c,d,a,c,b,e,d,b,b,b,c,a,a
RandomS587,a,a,a,c,a,e,c,d,d,a,a,b,e,d,b,d,e,c,c,e,e,d,e,d,d,b,d
RandomS588,d,b,a,c,b,b,e,c,b,a,b,e,e,c,d,d,b,b,c,a,e,e,d,d,b,d,e
RandomS589,e,d,d,a,c,c,e,e,e,b,b,a,d,a,e,c,b,e,e,d,d,c,c,b,d,b,b
RandomS590,e,b,e,d,e,e,d,e,d,c,a,c,c,e,c,e,d,b,a,d,d,c,c,a,d,d,d
RandomS591,a,e,e,b,c,b,a,a,a,e,d,d,e,b,b,e,a,c,d,d,e,a,b,e,e,e,c
RandomS592,d,e,b,b,b,a,a,d,e,b,d,c,a,e,e,c,a,b,b,e,c,a,e,d,c,a,c
RandomS593,a,e,a,d,b,b,b,b,c,b,d,b,a,c,c,a,d,e,e,b,e,d,d,b,c,d,c
RandomS594,c,e,b,b,d,d,b,d,c,b,a,c,e,e,e,d,c,d,a,a,e,e,e,a,b,c,b
RandomS595,e,b,d,c,d,e,a,b,b,a,b,a,a,c,a,b,b,c,e,b,a,e,c,e,a,c,c
RandomS596,c,d,d,e,c,c,b,b,e,c,d,b,e,d,a,c,a,e,e,b,b,d,e,b,a,d,d
RandomS597,d,b,a,b,b,c,c,c,c,c,c,a,c,e,d,a,a,e,d,e,c,e,a,a,c,c,a
RandomS598,b,e,a,b,b,e,e,e,b,e,e,e,e,a,a,b,c,b,e,b,e,b,c,a,e,d,b
RandomS599,e,d,a,a,b,b,b,b,e,d,b,c,a,c,e,c,a,d,c,d,e,e,c,c,a,a,d
RandomS600,d,c,b,d,e,e,d,a,b,a,a,a,e,d,d,a,e,d,a,d,c,b,b,a,c,c,e
RandomS601,b,a,b,b,d,d,d,a,e,e,b,c,b,c,c,b,b,e,b,a,e,a,b,d,b,d,e
RandomS602,b,e,a,c,a,a,b,a,e,e,c,e,a,e,c,d,e,c,c,c,e,a,c,b,b,c,c
RandomS603,b,a,e,d,d,a,c,a,a,b,b,a,b,e,b,a,c,a,c,d,d,e,c,e,e,e,d
RandomS604,a,d,c,d,b,c,d,c,a,e,e,d,d,e,a,e,e,b,c,b,d,e,b,e,c,c,e
RandomS605,e,b,e,b,c,d,e,b,c,d,a,e,a,b,a,e,c,d,b,d,b,b,b,c,a,c,e
RandomS606,c,e,d,c,b,d,d,d,a,a,b,d,e,e,e,c,a,c,b,b,d,b,e,c,c,d,c
RandomS607,d,b,c,a,c,c,e,a,a,c,c,b,a,e,c,c,b,e,e,c,c,d,c,b,a,c,e
RandomS608,e,c,c,e,c,d,b,d,d,c,a,d,d,d,d,a,d,e,a,c,d,e,b,a,b,b,a
RandomS609,a,d,c,b,d,a,d,e,d,a,d,c,c,e,e,b,a,b,c,a,b,d,c,e,d,d,a
RandomS610,a,d,e,c,b,e,d,a,e,b,b,c,d,b,d,a,a,c,e,c,b,a,a,c,b,b,a
RandomS611,e,a,a,d,e,b,c,a,e,c,d,e,b,c,d,a,a,a,b,e,d,b,e,d,d,c,a
RandomS612,e,b,e,b,c,c,c,a,b,a,e,b,d,c,d,a,b,b,d,e,c,e,d,a,c,d,c
RandomS613,d,e,c,d,e,c,d,b,d,d,c,e,d,a,a,e,c,d,b,c,d,c,b,b,d,b,d
RandomS614,b,a,d,b,c,c,d,a,b,a,d,a,d,c,b,b,d,b,b,d,c,d,e,e,e,c,c
RandomS615,e,a,b,c,d,b,d,a,b,e,e,d,a,a,b,b,b,b,a,e,c,a,a,a,a,a,d
RandomS616,e,c,b,d,e,a,a,c,b,a,d,b,b,b,a,e,d,b,c,c,d,c,a,d,d,c,c
RandomS617,c,b,a,b,b,d,d,c,d,a,c,b,e,d,b,c,d,d,b,a,b,b,e,b,e,c,b
RandomS618,c,e,d,c,c,d,d,a,d,e,e,d,d,e,a,a,a,c,c,b,a,c,e,b,a,d,b
RandomS619,d,a,a,d,a,c,e,e,e,c,b,e,c,d,d,e,a,b,c,b,d,b,e,a,d,b,d
RandomS620,e,d,c,e,a,c,b,e,c,b,b,b,a,c,e,d,b,d,c,c,d,a,a,b,e,c,c
RandomS621,d,e,e,d,e,d,e,d,a,d,d,b,c,b,b,c,c,a,c,e,e,c,d,e,e,a,b
RandomS622,c,e,b,c,c,c,a,d,b,c,b,a,d,b,d,b,d,b,a,a,c,a,a,a,a,c,a
RandomS623,a,e,d,b,a,e,a,c,d,a,a,a,c,a,b,d,c,c,a,e,b,d,a,c,e,b,c
RandomS624,e,c,d,b,a,b,b,d,d,a,b,c,e,e,a,a,e,b,a,a,b,a,d,b,d,b,d
RandomS625,b,d,a,b,d,e,d,a,a,e,b,c,b,c,d,e,c,b,a,b,d,e,a,b,e,d,e
RandomS626,e,d,d,a,d,a,a,e,b,c,d,b,a,c,e,a,d,c,d,e,a,e,d,d,c,e,e
RandomS627,d,b,c,d,d,a,d,a,b,e,b,b,c,d,d,b,b,b,e,a,e,e,d,e,c,b,b
RandomS628,a,e,e,b,c,a,d,d,e,d,d,a,c,c,c,e,e,c,a,e,c,b,a,d,c,e,d
RandomS629,a,b,d,c,a,b,a,d,c,e,d,c,d,e,b,a,a,a,c,e,b,b,b,a,c,a,d
RandomS630,e,b,e,a,e,d,a,d,d,c,a,e,e,b,b,d,a,b,a,d,b,d,b,a,e,b,c
RandomS631,b,b,d,e,a,e,a,b,a,c,a,c,c,e,d,b,c,c,a,a,c,c,d,c,a,e,e
RandomS632,c,e,d,a,c,e,d,a,e,e,a,c,d,e,d,c,d,d,d,a,c,c,c,c,c,c,d
RandomS633,d,c,c,a,d,b,c,d,e,b,a,d,d,c,d,e,a,b,a,d,c,d,e,e,b,b,c
RandomS634,b,c,d,c,b,e,d,e,e,d,b,b,c,a,b,b,b,a,a,a,a,e,a,b,c,a,c
RandomS635,c,d,b,b,e,c,d,e,d,a,a,e,c,a,a,d,b,e,b,e,a,e,a,c,b,e,d
RandomS636,c,b,b,d,d,b,c,d,e,b,d,e,e,c,d,c,e,a,c,a,c,a,e,c,e,e,e
RandomS637,a,a,a,b,d,c,c,e,b,e,a,e,c,a,c,a,d,d,b,e,d,a,e,a,c,b,c
RandomS638,e,d,b,a,c,e,d,c,b,c,c,e,d,e,e,c,b,d,b,b,d,e,a,a,c,d,a
RandomS639,e,d,d,e,b,d,b,a,b,b,b,b,c,d,d,b,a,d,e,a,e,b,a,c,c,a,e
RandomS640,d,c,d,d,a,d,a,a,c,c,c,b,d,c,b,a,d,c,d,e,c,e,a,b,b,c,a
RandomS641,b,e,b,c,a,a,e,c,d,c,a,e,c,c,c,b,d,c,c,d,c,e,d,c,e,d,c
RandomS642,a,d,a,c,b,e,b,a,d,b,c,e,b,a,a,d,b,e,c,a,e,e,a,b,b,a,e
RandomS643,b,a,b,c,e,d,a,a,d,d,b,b,a,b,b,e,a,e,d,b,b,c,c,e,a,b,d
RandomS644,c,d,e,d,e,d,c,d,b,a,e,b,c,a,a,d,c,e,a,d,e,d,a,c,c,d,a
RandomS645,e,e,c,d,d,b,e,b,c,a,d,b,d,e,c,d,b,d,c,c,d,b,a,b,a,c,a
RandomS646,d,e,e,c,c,a,a,e,a,b,d,c,b,e,b,d,a,d,b,b,a,b,e,d,d,d,b
RandomS647,b,e,a,e,a,e,c,a,e,c,d,c,e,a,b,e,d,a,a,b,c,d,a,b,c,e,e
RandomS648,e,a,b,d,c,b,c,a,d,b,c,d,d,d,d,e,a,e,c,c,c,b,b,d,b,c,c
RandomS649,d,a,b,d,d,c,c,d,e,e,c,a,b,e,e,e,a,b,e,e,e,b,c,a,e,e,a
RandomS650,c,a,c,d,c,c,a,a,e,a,b,e,d,d,e,d,c,b,a,a,b,e,e,b,d,d,d
RandomS651,a,b,b,a,e,c,b,e,d,c,c,d,a,b,c,a,a,e,b,d,e,b,d,a,b,a,a
RandomS652,d,b,c,d,c,e,e,e,e,e,b,b,a,c,d,c,e,c,c,c,a,a,a,e,e,c,b
RandomS653,e,d,a,e,e,e,e,e,d,c,a,e,c,c,e,a,e,e,d,e,e,e,d,a,a,a,b
RandomS654,c,a,d,d,d,d,e,e,e,e,a,b,c,c,e,c,c,e,c,d,c,e,c,a,e,a,a
RandomS655,d,b,a,e,c,b,c,e,a,b,b,b,a,a,d,c,e,e,a,d,c,d,e,b,e,b,c
RandomS656,c,c,c,e,b,c,a,c,e,c,d,b,e,e,a,e,a,b,a,a,d,e,e,e,b,e,c
RandomS657,e,d,e,e,e,d,d,a,c,a,d,b,b,e,a,d,d,e,a,e,c,b,b,a,b,b,e
RandomS658,c,a,b,d,a,a,b,d,e,b,e,d,b,d,b,b,a,e,c,b,a,b,d,e,c,e,d
RandomS659,b,d,b,e,e,b,a,b,b,d,d,b,b,a,c,d,e,d,c,e,a,e,d,a,c,a,b
RandomS660,a,d,e,a,e,b,c,a,e,b,a,b,a,c,e,c,c,b,a,c,d,c,e,d,d,c,b
RandomS661,d,c,a,b,e,c,c,e,a,b,d,d,e,d,e,d,d,b,c,e,a,a,a,d,a,d,d
RandomS662,e,c,a,e,e,c,b,d,b,d,a,a,a,e,a,a,d,a,e,a,a,a,e,e,e,c,a
RandomS663,c,b,c,a,e,b,d,d,e,d,e,d,a,c,c,b,b,d,d,d,d,d,b,c,e,b,a
RandomS664,d,e,e,e,b,d,d,d,a,d,e,c,e,c,c,b,e,d,a,c,c,b,e,d,c,a,e
RandomS665,a,b,d,a,c,c,d,b,e,e,e,d,c,c,a,a,d,c,d,c,a,a,b,e,d,a,a
RandomS666,a,e,b,d,d,a,d,a,a,d,c,d,a,d,a,d,e,d,d,c,c,a,a,a,b,a,a
RandomS667,c,a,e,b,a,d,a,a,d,a,e,e,a,c,d,c,d,c,c,c,b,c,a,b,e,e,b
RandomS668,c,d,d,d,e,b,b,e,d,c,c,e,a,d,e,d,b,d,b,e,d,b,c,a,a,d,e
RandomS669,e,e,d,d,a,e,c,e,c,a,b,a,a,c,e,e,c,c,b,b,c,a,b,b,c,b,d
RandomS670,a,c,b,c,a,c,a,d,d,b,d,a,d,d,a,e,b,a,c,e,e,a,e,c,e,c,b
RandomS671,e,d,b,b,c,b,d,d,e,c,e,d,a,b,c,e,c,a,b,c,a,a,e,a,d,e,b
RandomS672,e,d,a,d,a,e,c,d,e,c,e,a,e,d,b,e,b,d,a,d,b,e,c,e,a,d,b
RandomS673,b,b,b,a,a,b,c,b,d,e,c,a,a,d,a,c,a,c,c,a,c,a,b,a,d,a,d
RandomS674,c,c,a,d,c,d,d,d,b,e,c,a,e,e,e,e,e,b,b,c,a,e,c,e,a,d,d
RandomS675,c,b,d,d,d,b,b,c,d,d,b,a,d,c,b,d,a,b,c,c,e,d,d,b,d,b,c
RandomS676,e,b,b,e,e,c,c,c,c,e,d,b,d,d,c,b,b,c,d,e,b,d,e,c,a,c,e
RandomS677,d,a,b,b,b,e,e,a,b,a,b,d,e,d,e,e,c,b,b,e,e,e,e,b,e,e,e
RandomS678,d,c,b,c,c,a,d,e,d,c,d,c,a,a,e,c,a,e,d,b,c,e,e,e,a,b,c
RandomS679,a,d,a,b,c,e,e,c,d,d,c,b,a,c,d,d,e,c,c,c,e,b,d,e,b,b,c
RandomS680,e,d,a,a,e,a,c,a,e,e,b,b,a,e,d,e,c,a,c,e,b,b,c,a,d,a,d
RandomS681,e,e,c,c,b,d,d,e,b,e,e,c,d,d,d,a,e,d,c,e,a,b,c,d,c,a,d
RandomS682,a,d,b,e,b,b,a,c,e,a,b,a,c,e,e,e,c,a,a,c,d,a,b,c,d,e,c
RandomS683,a,b,e,d,e,c,b,a,d,b,a,a,c,e,c,a,d,c,e,e,c,a,b,d,d,c,c
RandomS684,e,c,c,e,b,e,b,b,e,c,a,e,e,d,e,c,a,a,d,a,b,d,c,a,c,a,e
RandomS685,c,a,c,c,b,a,c,e,c,d,a,b,d,e,c,c,e,d,e,d,c,e,b,e,d,c,d
RandomS686,e,a,a,d,a,b,e,c,d,c,e,a,d,b,b,c,b,e,c,e,d,c,e,c,e,b,e
RandomS687,a,a,a,d,a,b,a,d,e,d,b,a,e,d,b,d,d,b,b,d,a,d,c,e,b,d,b
RandomS688,b,a,c,a,c,b,e,b,c,c,d,c,a,e,e,a,b,b,a,e,a,d,a,d,c,d,a
RandomS689,a,c,b,e,d,a,e,c,e,d,b,b,a,b,a,b,a,d,a,c,d,b,d,c,c,c,b
RandomS690,e,d,e,e,e,e,c,b,c,b,e,b,d,c,d,c,e,d,e,b,c,a,e,a,e,d,a
RandomS691,d,b,e,e,e,c,c,c,b,c,e,a,d,b,b,e,b,c,b,d,b,d,e,a,d,e,c
RandomS692,b,b,c,c,b,e,d,b,c,d,b,c,c,c,e,c,e,d,e,b,a,a,e,e,a,e,c
RandomS693,d,d,e,b,b,e,b,e,c,b,c,c,b,e,c,d,b,b,a,d,b,c,a,b,b,b,b
RandomS694,c,e,d,d,a,c,e,d,b,d,e,d,a,e,e,b,b,b,b,a,a,a,a,b,e,a,e
RandomS695,c,d,e,e,b,b,c,e,b,a,c,b,a,c,a,d,e,a,a,e,c,c,b,b,c,e,e
RandomS696,a,b,a,e,b,e,c,a,e,d,b,d,b,e,d,a,c,c,d,b,e,a,d,c,d,c,c
RandomS697,c,b,b,e,b,c,c,c,e,c,b,b,a,c,d,b,c,b,b,d,a,c,d,e,b,b,d
RandomS698,d,a,a,a,e,c,e,c,d,a,c,d,b,e,c,c,b,d,b,d,d,e,a,c,c,e,e
RandomS699,c,c,c,b,b,a,d,a,d,b,d,e,e,a,a,e,e,b,a,a,c,c,a,d,c,d,b
RandomS700,b,e,a,e,c,b,e,d,e,b,b,d,a,e,b,d,e,b,e,a,a,e,c,a,a,b,b
RandomS701,d,a,c,c,e,c,c,d,d,a,a,c,c,e,a,b,b,b,d,b,c,d,b,c,a,a,a
RandomS702,a,d,b,e,e,c,d,e,e,e,b,a,d,d,d,b,c,a,c,c,a,e,d,b,c,d,c
RandomS703,e,b,e,c,e,a,c,d,d,a,b,e,d,c,a,d,e,c,a,c,b,a,c,e,d,a,c
RandomS704,b,a,c,a,e,b,b,c,d,d,a,d,d,c,b,e,c,d,b,b,b,b,d,b,e,d,b
RandomS705,c,d,a,e,c,d,c,e,c,d,a,b,d,d,b,b,b,b,a,b,a,e,c,c,c,b,b
RandomS706,c,b,b,b,c,a,c,e,d,c,e,c,c,c,d,e,e,c,b,a,e,b,c,b,e,a,d
RandomS707,e,e,d,b,c,a,a,d,d,c,b,c,a,c,e,d,c,a,b,a,d,b,e,d,c,d,e
RandomS708,c,c,a,b,e,a,b,b,b,c,d,a,b,b,d,d,d,c,d,d,d,a,b,a,e,b,e
RandomS709,d,d,e,d,d,b,b,c,a,c,a,e,b,b,e,d,c,d,d,e,a,b,e,b,a,b,d
RandomS710,a,c,a,e,a,a,a,b,b,b,b,c,d,e,c,a,b,a,d,c,a,e,a,e,a,a,a
RandomS711,a,a,b,b,d,c,a,a,a,b,c,d,b,c,b,e,c,b,a,d,b,a,d,e,b,c,a
RandomS712,c,a,b,d,a,a,b,a,d,b,e,d,d,c,c,e,e,e,d,a,c,a,d,e,b,c,e
RandomS713,d,b,c,b,e,e,b,d,b,d,d,b,b,d,b,d,a,d,e,e,b,b,b,d,c,a,d
RandomS714,c,c,c,a,e,d,d,e,a,d,c,b,c,d,c,d,e,e,c,d,c,c,e,d,a,b,c
RandomS715,a,e,a,b,a,c,c,b,e,c,a,a,c,e,a,c,a,a,a,b,e,a,c,b,a,e,c
RandomS716,a,b,b,b,d,b,d,b,a,c,d,c,b,c,e,e,c,a,a,a,a,e,d,e,b,c,d
RandomS717,a,d,a,d,e,e,e,d,b,b,a,d,b,b,d,d,c,e,d,e,e,a,b,c,b,c,b
RandomS718,c,e,d,e,c,a,a,d,c,a,d,e,e,b,a,b,a,e,a,b,e,c,c,a,a,a,e
RandomS719,d,e,c,c,a,b,c,b,c,d,e,b,c,d,d,a,b,a,c,a,d,b,b,a,e,e,b
RandomS720,c,c,a,a,e,e,b,d,a,c,a,c,b,b,d,a,b,a,c,b,a,b,e,b,d,b,c
RandomS721,e,e,a,a,c,e,e,c,c,d,c,d,a,a,e,e,e,c,c,d,a,d,a,e,b,a,c
RandomS722,c,c,c,a,a,d,c,c,c,b,a,b,c,b,b,b,b,e,a,e,a,b,e,e,b,a,b
RandomS723,c,c,b,d,d,e,b,d,e,a,d,c,b,b,d,e,b,e,b,a,c,b,a,c,d,d,b
RandomS724,e,e,b,b,b,b,e,e,e,d,e,e,d,e,a,b,b,d,d,c,a,d,e,e,d,e,e
RandomS725,e,b,a,a,b,a,c,d,d,c,b,a,d,d,c,b,b,b,b,c,e,a,c,a,c,e,b
RandomS726,d,d,d,a,a,a,d,c,c,c,b,b,c,d,d,b,e,b,c,b,c,b,d,c,b,b,d
RandomS727,a,e,d,b,a,e,d,c,d,b,d,b,a,e,c,b,a,e,b,b,e,c,a,e,a,c,c
RandomS728,b,d,c,d,d,e,e,d,c,d,a,c,a,b,a,d,c,b,c,a,c,a,a,e,e,c,b
RandomS729,b,d,e,d,a,a,c,b,e,b,e,d,a,a,a,d,c,a,a,b,d,b,a,b,c,b,e
RandomS730,b,d,e,e,d,b,a,b,e,b,a,c,b,a,a,c,b,c,b,b,b,b,d,a,a,a,b
RandomS731,b,a,a,e,d,a,e,a,a,a,b,c,d,d,a,d,e,a,b,e,d,a,e,b,e,d,e
RandomS732,c,e,a,a,d,b,e,d,e,c,c,e,d,d,b,c,a,d,b,e,c,b,c,d,d,c,e
RandomS733,e,b,b,e,e,d,b,a,c,b,b,d,b,b,e,d,e,c,c,d,c,e,a,d,e,b,c
RandomS734,d,a,a,e,c,c,e,d,b,c,a,b,a,d,e,c,e,a,c,d,d,d,d,c,a,a,c
RandomS735,a,b,a,d,d,a,e,c,a,a,a,a,b,c,d,d,a,a,c,c,c,e,b,c,c,c,b
RandomS736,a,e,c,b,c,d,c,a,b,e,b,d,c,d,d,d,b,a,d,d,a,a,c,a,e,e,a
RandomS737,d,d,d,d,c,a,a,c,c,c,c,b,b,c,b,a,b,c,c,e,b,b,e,c,d,a,b
RandomS738,c,e,b,a,e,d,a,d,e,e,d,c,b,e,d,e,c,e,a,b,b,c,b,a,d,a,e
RandomS739,b,b,b,c,a,a,b,a,d,d,e,c,c,d,d,c,b,c,a,e,c,b,e,c,d,c,c
RandomS740,d,e,c,a,b,a,e,e,a,c,b,d,d,a,b,e,d,e,d,b,e,c,a,e,c,c,c
RandomS741,c,d,b,a,d,e,c,c,c,d,b,a,e,d,d,c,d,b,b,d,b,e,d,d,d,c,e
RandomS742,b,d,c,d,c,a,b,d,e,a,d,d,e,c,c,c,d,b,d,e,e,e,b,b,e,d,b
RandomS743,d,d,b,c,e,c,d,d,c,a,c,a,e,e,a,a,b,d,c,d,c,b,b,e,d,a,a
RandomS744,a,d,c,e,b,d,a,c,c,d,e,e,d,a,a,b,a,a,c,e,c,a,d,a,e,d,d
RandomS745,b,e,b,d,b,e,e,c,a,a,b,b,b,d,c,d,e,a,a,d,b,b,e,c,b,b,e
RandomS746,d,a,a,b,c,e,d,b,d,d,d,e,b,e,e,b,c,c,c,c,a,d,a,b,c,e,e
RandomS747,b,d,c,e,e,a,d,b,c,b,a,e,c,a,a,a,c,b,d,c,a,b,e,e,c,c,e
RandomS748,e,a,a,e,a,a,a,a,a,e,a,b,b,a,e,a,e,a,e,e,e,a,d,e,e,c,a
RandomS749,a,e,d,c,a,b,b,c,e,a,c,b,a,c,c,c,b,a,c,b,d,b,a,a,e,e,e
RandomS750,a,a,b,d,e,a,d,d,b,a,a,b,d,a,d,e,d,c,d,e,d,d,b,e,c,a,a
RandomS751,d,e,d,e,b,e,d,c,b,d,b,e,a,a,b,e,e,d,d,e,e,c,c,a,e,d,d
RandomS752,c,e,c,b,b,c,b,d,e,c,e,c,b,b,c,c,a,c,a,d,c,b,b,b,a,c,e
RandomS753,c,e,a,c,b,e,d,a,a,b,c,c,b,a,b,a,a,a,c,e,d,e,d,d,c,a,a
RandomS754,d,c,c,d,e,a,a,e,a,a,c,d,c,a,b,b,d,c,d,a,d,b,c,c,b,b,c
RandomS755,d,b,c,b,a,a,d,b,c,d,d,e,d,d,a,a,b,a,a,d,b,b,d,b,a,b,a
RandomS756,a,e,e,a,a,c,c,c,b,d,d,a,d,d,d,a,a,a,c,b,b,d,e,c,a,b,e
RandomS757,b,d,d,a,e,d,c,e,b,d,b,e,a,e,a,c,c,a,a,c,b,e,a,d,b,a,b
RandomS758,e,a,d,c,d,d,c,c,d,d,b,d,a,e,a,a,a,d,b,e,e,e,b,e,a,d,c
RandomS759,e,c,c,c,d,c,b,c,d,d,d,b,a,b,d,c,c,b,c,e,b,c,c,d,c,e,a
RandomS760,d,d,b,a,b,d,d,a,a,c,a,d,d,c,b,a,d,a,d,e,a,d,b,c,b,e,b
RandomS761,d,d,c,d,d,b,c,a,e,b,b,c,c,a,b,e,b,e,c,c,c,c,e,e,c,b,d
RandomS762,b,d,e,b,e,e,c,a,a,c,d,d,d,e,c,e,a,a,d,a,b,a,c,b,b,b,a
RandomS763,a,b,e,d,e,e,e,c,d,d,b,c,d,d,b,d,b,b,a,d,e,d,e,b,e,b,d
RandomS764,b,d,b,b,d,e,e,b,c,d,d,e,a,b,e,e,a,e,d,e,d,d,b,e,d,a,e
RandomS765,a,d,e,b,d,c,b,e,a,b,e,b,e,a,b,b,d,c,e,d,a,a,b,c,e,d,e
RandomS766,c,a,c,b,c,b,e,e,c,d,c,e,c,a,e,a,a,e,b,a,b,b,d,d,e,c,b
RandomS767,e,c,b,a,d,c,b,a,b,e,a,a,a,c,d,d,b,e,d,e,c,c,e,d,b,b,d
RandomS768,d,c,c,c,b,c,c,d,c,b,e,d,d,d,e,e,d,d,e,d,c,a,a,e,e,e,d
RandomS769,b,b,a,a,e,d,e,c,c,b,a,e,a,a,c,b,e,e,c,a,a,c,b,d,d,b,d
RandomS770,c,a,b,e,c,e,b,d,c,a,a,c,b,e,b,d,b,d,e,b,e,e,a,e,b,e,a
RandomS771,d,d,d,a,d,d,e,d,c,d,e,a,c,b,c,a,b,d,c,a,a,e,a,c,c,a,a
RandomS772,b,c,a,b,b,e,e,a,d,d,b,a,b,d,e,c,e,c,c,b,c,a,d,b,b,d,b
RandomS773,a,d,c,a,c,a,b,c,a,a,a,a,a,a,b,b,d,b,c,c,c,d,d,e,b,c,d
RandomS774,b,b,a,d,c,c,d,e,e,d,e,d,e,c,a,e,a,e,c,b,b,d,c,c,c,e,a
RandomS775,a,d,d,e,a,b,e,e,e,b,c,b,c,a,a,e,c,e,d,c,e,c,c,e,c,c,b
RandomS776,e,d,c,b,d,e,b,e,e,d,b,e,d,b,b,d,c,a,c,d,e,c,a,b,e,c,e
RandomS777,a,a,e,b,a,d,c,b,a,d,e,c,b,a,d,c,c,b,c,c,b,c,c,e,a,a,b
RandomS778,d,e,b,e,b,e,a,b,d,c,b,a,c,e,a,a,e,a,c,e,a,d,a,d,b,d,e
RandomS779,b,c,a,d,c,e,b,e,a,d,c,c,d,c,d,a,e,a,c,b,b,a,d,c,d,b,d
RandomS780,b,e,d,e,e,c,e,a,c,c,c,d,e,d,d,a,e,c,a,d,d,d,a,d,b,c,e
RandomS781,e,d,d,a,b,b,a,e,a,c,e,a,c,d,c,c,b,e,c,e,c,e,b,d,e,e,b
RandomS782,c,c,a,c,a,c,b,c,d,b,b,a,e,c,b,d,e,c,d,a,e,e,e,c,b,b,b
RandomS783,a,c,b,d,e,d,c,e,b,d,b,e,e,b,e,e,a,e,b,a,e,d,e,d,a,b,c
RandomS784,c,a,a,a,d,e,b,b,b,c,b,a,b,c,d,c,c,b,d,a,b,b,d,a,b,b,d
RandomS785,c,b,a,b,d,e,d,c,a,d,c,e,b,c,a,d,a,e,d,e,e,e,d,a,b,b,c
RandomS786,b,b,e,a,a,e,a,e,a,a,a,b,d,d,d,b,e,c,e,e,d,c,d,a,c,a,c
RandomS787,b,c,d,d,c,b,b,a,a,a,c,c,a,b,a,a,a,c,a,a,a,e,c,e,b,b,c
RandomS788,c,a,e,c,b,b,b,d,d,b,c,d,b,b,b,b,c,d,a,b,e,b,d,a,d,d,d
RandomS789,c,b,c,c,b,e,c,a,d,a,e,d,b,a,e,c,a,c,c,d,a,b,a,d,b,a,a
RandomS790,e,b,a,e,d,e,d,a,c,d,e,b,b,b,e,a,e,c,a,a,b,a,c,c,b,b,b
RandomS791,a,d,e,c,e,b,b,e,a,d,d,c,d,e,d,c,e,c,a,b,a,b,e,c,d,d,a
RandomS792,c,e,b,e,a,e,d,a,a,d,a,d,b,a,c,b,d,a,e,b,c,c,d,c,e,c,b
RandomS793,e,b,e,b,a,b,d,a,b,d,a,c,b,b,e,c,b,e,d,c,b,d,b,c,d,d,a
RandomS794,a,e,d,a,c,c,c,d,c,d,b,a,a,e,a,d,a,b,d,c,c,b,e,c,a,a,b
RandomS795,d,a,b,d,a,a,c,e,d,b,e,e,d,d,e,b,a,b,c,c,c,a,d,c,e,b,b
RandomS796,a,a,b,d,e,e,a,d,e,c,d,b,c,b,e,b,e,a,e,d,d,d,a,e,b,e,b
RandomS797,c,d,a,a,e,e,d,d,b,b,b,c,a,b,a,d,d,b,b,c,a,e,e,e,d,a,b
RandomS798,a,a,d,a,c,e,e,c,a,c,c,b,a,e,e,d,e,e,a,d,b,a,d,c,a,d,d
RandomS799,c,b,d,b,a,b,e,e,d,e,c,b,d,b,a,a,b,d,a,e,b,b,b,d,d,a,a
RandomS800,c,e,e,d,e,d,b,e,c,d,d,b,a,e,c,a,b,d,a,b,e,b,a,a,b,d,d
RandomS801,d,c,c,b,b,a,b,b,e,d,e,e,e,d,d,c,c,d,d,e,e,d,e,a,e,b,a
RandomS802,d,d,b,c,d,c,c,b,e,e,c,d,b,e,d,b,d,c,c,a,c,b,d,c,b,c,e
RandomS803,e,a,a,d,a,d,e,a,e,c,d,b,b,e,c,b,c,a,e,c,c,d,e,a,e,b,c
RandomS804,e,a,b,b,a,c,a,d,b,c,a,e,c,a,b,c,d,a,d,b,c,c,b,b,b,b,c
RandomS805,a,e,a,b,b,a,a,c,a,d,e,d,c,c,b,a,c,d,e,a,c,e,a,b,e,d,a
RandomS806,d,e,d,e,d,a,e,a,c,b,b,c,b,e,d,a,e,c,e,e,c,e,c,d,c,a,b
RandomS807,d,d,b,c,c,d,c,d,b,e,b,c,b,b,e,b,d,a,b,e,d,c,d,b,a,d,c
RandomS808,a,e,e,d,c,c,c,b,b,b,d,d,e,a,d,b,b,e,d,e,e,e,b,c,b,a,b
RandomS809,a,c,a,c,a,a,e,b,c,c,a,b,e,b,d,a,d,b,c,b,e,e,a,a,b,a,a
RandomS810,b,d,b,d,c,a,e,c,c,b,e,e,a,b,e,d,d,e,c,e,a,c,a,b,a,c,c
RandomS811,d,e,b,a,c,b,d,e,d,e,e,c,b,d,e,b,e,e,d,b,c,e,c,d,a,e,e
RandomS812,d,b,e,b,b,a,d,d,a,a,d,e,c,a,c,c,e,e,a,c,a,e,b,b,c,c,d
RandomS813,d,e,d,d,d,e,e,e,d,e,d,b,a,e,e,e,c,b,c,c,b,e,d,c,e,e,b
RandomS814,d,e,b,c,b,e,d,c,d,b,d,e,e,e,a,d,a,e,d,b,b,e,c,e,d,c,e
RandomS815,b,a,e,d,a,b,c,a,d,c,a,a,d,d,a,c,b,a,c,c,c,a,b,e,c,a,c
RandomS816,c,d,c,d,b,b,c,b,b,e,b,c,e,a,c,d,b,b,d,d,b,e,b,e,c,d,b
RandomS817,b,b,c,c,d,c,d,c,d,a,c,d,d,b,a,b,e,a,c,e,c,e,b,b,d,d,a
RandomS818,e,d,b,b,b,d,a,b,d,d,e,b,a,b,c,e,a,c,a,b,a,d,b,b,d,c,d
RandomS819,b,d,b,c,c,b,b,c,b,c,a,b,d,e,d,a,a,d,c,d,b,d,d,a,d,d,b
RandomS820,b,a,c,c,d,c,b,c,b,e,d,d,a,e,b,c,b,b,a,d,c,b,b,b,e,a,a
RandomS821,d,a,d,c,a,e,b,d,a,e,b,b,a,e,a,c,c,b,b,b,a,a,a,d,c,b,a
RandomS822,b,c,d,c,e,e,d,a,d,c,a,e,b,b,b,a,b,c,a,d,e,a,a,d,d,b,e
RandomS823,b,e,e,d,e,b,b,e,b,e,a,a,d,b,c,e,b,e,e,d,a,b,e,a,d,d,d
RandomS824,e,d,e,e,c,c,e,a,b,b,a,d,b,e,c,e,a,a,b,e,b,a,e,e,c,d,a
RandomS825,b,e,b,a,c,d,c,d,e,a,d,e,d,b,e,b,d,c,d,a,a,b,d,b,c,d,d
RandomS826,e,c,e,b,a,e,b,a,a,b,a,e,c,d,b,c,c,e,e,a,a,e,d,a,b,d,a
RandomS827,e,d,a,c,b,c,b,a,d,a,e,a,a,d,a,a,b,a,d,e,a,e,e,d,a,e,b
RandomS828,e,e,d,b,d,b,c,b,c,d,e,d,b,c,c,c,d,e,a,b,b,b,b,c,c,c,c
RandomS829,e,c,e,e,d,e,a,c,c,d,a,c,b,c,e,a,e,a,a,d,c,b,a,c,c,a,e
RandomS830,e,d,a,e,c,e,c,c,c,a,a,e,e,a,d,d,b,c,a,b,c,b,a,c,e,d,e
RandomS831,b,d,b,d,d,c,b,d,e,a,b,d,b,c,d,b,a,a,c,c,b,e,c,d,c,e,a
RandomS832,e,c,d,b,b,b,b,a,d,e,b,a,a,a,b,b,e,c,b,e,d,b,c,e,d,b,d
RandomS833,e,a,d,d,c,a,c,b,b,e,b,b,b,b,e,e,a,c,d,b,d,c,c,a,c,a,a
RandomS834,a,e,a,e,b,d,e,e,b,d,c,e,c,d,e,a,a,c,b,a,b,c,a,e,a,e,e
RandomS835,b,b,d,c,a,d,c,d,e,d,d,a,c,a,c,e,b,c,a,c,b,e,d,e,b,b,c
RandomS836,b,c,a,e,a,e,a,d,e,d,e,d,b,c,a,b,e,e,d,e,c,a,e,d,e,a,b
RandomS837,e,a,e,c,d,c,e,e,b,e,e,a,b,b,d,d,b,e,d,d,d,a,d,d,d,c,e
RandomS838,b,c,a,b,c,a,b,c,b,d,c,a,b,d,a,d,d,d,a,c,d,e,d,b,d,c,d
RandomS839,b,e,a,b,a,a,b,e,d,c,d,b,b,c,d,c,e,b,d,e,e,e,b,b,e,b,d
RandomS840,b,a,c,a,e,e,b,b,e,c,e,e,a,e,a,d,a,b,c,a,d,d,b,b,c,c,c
RandomS841,a,e,c,c,b,d,b,b,d,e,e,b,b,a,c,d,c,c,c,b,c,e,a,a,b,a,d
RandomS842,e,d,c,d,a,d,a,b,c,e,c,e,e,a,a,a,c,a,a,c,d,e,d,a,a,c,a
RandomS843,a,d,b,c,a,d,d,c,b,b,a,c,a,c,c,b,b,d,e,e,a,a,a,c,e,d,d
RandomS844,b,b,b,b,e,d,e,e,a,e,b,d,a,b,a,e,a,d,e,b,a,d,c,d,b,e,b
RandomS845,a,e,d,b,c,c,b,c,b,d,b,b,c,c,c,a,a,b,a,d,e,d,b,b,e,a,d
RandomS846,e,a,d,e,a,d,a,e,b,e,e,c,e,b,d,b,c,d,a,a,d,a,c,b,d,e,e
RandomS847,b,b,a,d,d,a,c,d,e,a,a,a,b,b,c,a,c,d,e,d,c,c,d,d,d,b,d
RandomS848,b,e,a,c,c,a,b,b,c,a,c,b,e,e,d,b,b,d,d,b,e,b,a,e,c,a,e
RandomS849,d,b,d,c,e,e,c,c,c,d,e,d,d,c,a,a,a,c,e,c,e,d,a,b,d,d,e
RandomS850,d,e,e,b,d,e,e,c,e,e,c,e,d,e,b,e,e,d,d,c,d,c,c,c,a,c,c
RandomS851,a,a,d,e,a,c,e,c,b,b,b,a,a,e,a,a,c,a,a,e,e,a,d,b,d,a,a
RandomS852,b,e,d,a,c,a,a,e,e,c,c,e,c,d,c,d,b,e,e,c,e,d,d,e,e,b,d
RandomS853,e,b,b,c,e,c,a,e,e,c,b,a,d,c,c,a,a,a,c,c,d,e,e,d,c,a,c
RandomS854,d,b,d,e,c,b,c,d,d,d,b,a,b,c,d,a,e,c,c,e,c,a,e,d,d,b,c
RandomS855,a,e,a,e,b,c,a,c,b,a,b,d,d,d,c,e,d,e,d,d,e,c,e,c,a,d,b
RandomS856,e,d,d,b,a,c,c,d,a,c,b,c,c,e,e,e,b,b,b,d,e,b,b,a,a,c,d
RandomS857,d,d,a,e,e,a,b,a,b,a,c,c,d,a,a,c,e,c,c,c,d,a,a,b,c,b,e
RandomS858,e,e,a,b,d,b,d,b,c,c,b,a,a,b,c,c,b,b,a,e,d,d,b,a,c,d,a
RandomS859,e,c,a,c,e,d,d,c,a,e,e,a,c,c,c,e,d,d,c,d,e,a,a,a,c,a,c
RandomS860,a,d,e,e,c,e,d,c,a,c,b,b,c,e,e,c,d,a,e,e,c,a,c,e,c,e,c
RandomS861,a,b,e,b,b,b,d,a,b,d,e,e,b,d,c,d,c,a,a,d,a,d,a,d,a,c,e
RandomS862,d,d,a,d,d,b,b,b,a,a,b,d,b,a,c,a,d,d,d,d,c,a,d,a,a,c,a
RandomS863,e,c,b,d,c,c,b,e,e,b,b,b,a,b,e,d,c,b,e,a,a,e,d,d,c,a,b
RandomS864,d,d,d,b,a,a,a,b,d,d,c,e,e,c,a,e,d,d,e,a,a,d,e,d,b,e,e
RandomS865,b,e,d,b,e,e,c,d,b,d,e,e,c,a,d,c,e,a,b,a,e,c,d,e,e,a,b
RandomS866,e,b,c,a,c,a,d,a,b,d,d,a,a,c,c,e,a,a,e,b,b,b,b,d,a,d,c
RandomS867,e,b,d,e,c,a,a,d,e,b,e,c,d,c,a,e,a,c,c,c,a,e,d,d,b,b,a
RandomS868,e,e,d,a,e,d,c,d,e,c,a,b,b,a,c,a,b,d,c,a,a,e,c,d,e,e,d
RandomS869,a,a,d,b,a,c,a,b,e,c,e,e,e,e,d,a,e,a,c,a,a,b,b,d,a,c,d
RandomS870,d,a,c,a,c,b,b,a,e,a,e,a,a,b,e,c,b,c,a,d,e,e,d,a,e,b,c
RandomS871,d,e,b,d,d,d,d,e,d,d,d,c,c,a,e,e,a,d,d,e,d,b,d,e,b,e,e
RandomS872,b,e,c,b,d,b,b,c,c,b,b,c,e,b,e,b,e,b,c,d,a,b,a,b,b,e,d
RandomS873,c,a,b,c,b,c,b,a,b,a,b,c,d,a,c,b,a,d,b,c,b,d,e,c,c,b,d
RandomS874,e,c,e,e,a,c,a,a,c,a,e,b,e,b,e,b,d,d,b,c,d,a,b,b,d,c,c
RandomS875,d,d,a,c,c,a,d,e,a,b,c,a,c,d,c,e,d,d,e,c,a,b,c,b,e,a,d
RandomS876,e,e,b,d,a,a,b,d,c,b,b,e,d,b,e,d,d,c,a,b,d,d,d,d,d,d,a
RandomS877,e,a,d,a,c,b,a,d,b,c,e,d,c,a,b,e,d,a,e,d,e,d,c,d,c,d,d
RandomS878,d,b,e,e,a,c,c,d,c,c,e,d,a,e,a,e,d,b,e,d,a,c,e,c,c,a,b
RandomS879,a,c,a,c,d,e,c,b,e,b,e,d,d,e,c,d,c,b,d,e,c,b,b,c,b,e,a
RandomS880,b,b,e,c,d,e,a,e,b,a,d,c,d,c,e,e,b,a,e,d,e,c,d,e,d,b,d
RandomS881,a,e,e,d,a,b,a,e,b,b,a,a,b,d,e,b,b,c,e,d,a,a,c,d,d,d,a
RandomS882,c,d,d,d,c,d,b,c,c,e,e,b,a,b,b,e,a,c,b,e,b,e,e,a,e,e,d
RandomS883,a,b,e,d,e,c,e,e,c,d,a,a,d,e,b,a,e,e,b,e,b,e,b,c,d,a,e
RandomS884,b,e,e,c,c,e,d,c,b,b,d,e,c,e,e,b,d,b,a,b,a,e,e,b,d,e,b
RandomS885,d,c,b,d,b,e,d,d,c,e,d,d,d,b,d,b,a,b,b,d,d,d,c,e,c,a,d
RandomS886,d,b,c,d,a,a,e,d,e,a,b,e,c,b,b,b,d,b,c,a,c,d,c,a,d,b,e
RandomS887,a,e,d,c,b,d,c,a,a,c,a,d,d,e,b,a,c,a,a,b,d,e,b,d,d,a,c
RandomS888,b,a,e,a,b,e,d,e,d,c,b,e,b,a,e,b,b,e,c,a,a,e,d,c,c,a,b
RandomS889,c,b,d,d,e,b,c,a,d,c,d,d,b,a,d,d,a,a,e,c,d,a,c,e,d,e,b
RandomS890,a,c,d,b,c,b,e,c,b,a,c,c,c,c,c,c,e,c,d,e,d,d,b,a,a,d,e
RandomS891,a,a,e,e,c,d,a,c,e,d,d,b,e,a,e,c,a,c,e,b,c,d,c,d,c,b,c
RandomS892,d,d,b,d,c,c,b,b,a,e,a,d,a,a,d,b,a,e,b,a,d,e,e,b,a,c,a
RandomS893,d,e,a,d,d,d,a,d,b,c,a,e,d,a,e,c,b,a,e,b,a,a,a,b,c,e,e
RandomS894,d,e,c,d,b,d,b,c,e,d,d,b,e,c,c,e,b,b,a,a,d,b,b,e,b,e,c
RandomS895,e,b,d,e,a,c,a,e,b,c,c,d,c,e,a,e,a,c,a,a,c,b,a,d,e,d,e
RandomS896,d,a,a,a,c,d,b,c,d,d,e,e,c,d,a,c,b,e,a,c,e,a,b,e,d,c,a
RandomS897,a,d,a,a,b,b,b,c,e,e,c,d,d,c,e,e,e,d,c,e,c,a,e,c,c,d,c
RandomS898,d,b,b,c,a,a,b,d,e,e,a,a,d,c,b,d,a,d,c,a,b,e,b,d,e,e,c
RandomS899,b,c,c,d,e,d,e,d,e,a,a,b,c,b,d,c,b,c,a,e,c,a,e,b,b,b,c
RandomS900,b,c,d,c,c,a,e,e,c,b,d,a,a,d,a,a,d,c,a,e,d,e,c,a,b,a,d
RandomS901,a,e,d,c,e,e,e,e,a,b,a,b,c,b,e,b,a,c,c,a,b,b,e,b,e,c,e
RandomS902,c,b,c,e,b,b,b,e,d,c,d,e,b,e,c,c,c,a,b,b,b,d,a,e,d,b,c
RandomS903,e,b,e,c,d,e,c,c,b,a,a,a,b,c,b,e,a,e,e,e,e,b,c,a,c,a,e
RandomS904,d,d,c,c,b,c,e,d,d,b,e,c,c,c,e,a,b,e,d,e,d,e,a,d,e,a,b
RandomS905,e,b,d,b,b,b,e,e,b,e,a,c,e,e,b,b,b,c,c,a,b,b,e,b,b,e,a
RandomS906,a,d,d,d,d,a,b,b,e,b,b,c,d,d,a,a,a,e,a,e,c,a,c,e,a,d,a
RandomS907,a,a,d,e,b,d,b,a,d,c,c,c,a,c,a,b,a,c,b,b,d,e,e,b,d,d,d
RandomS908,b,e,b,d,d,a,e,d,d,b,a,b,c,c,e,c,d,d,b,c,d,c,d,d,e,a,b
RandomS909,e,b,d,d,b,a,d,e,c,c,b,e,d,b,b,e,c,e,a,d,d,b,d,a,c,d,e
RandomS910,d,e,b,a,b,b,c,d,d,e,a,d,b,e,b,e,d,d,d,a,b,e,d,d,c,c,d
RandomS911,b,c,e,e,e,e,d,e,a,d,c,b,a,a,e,c,c,e,a,c,a,b,d,c,c,c,d
RandomS912,c,c,a,d,d,d,d,a,e,a,b,c,e,e,b,c,b,a,a,a,d,d,a,d,b,c,b
RandomS913,d,c,e,c,e,c,b,a,b,b,b,d,a,c,d,d,c,d,a,d,e,e,d,d,d,d,a
RandomS914,e,d,e,b,e,c,b,d,c,e,b,d,a,b,e,b,a,c,e,b,a,d,d,e,e,b,a
RandomS915,c,e,c,a,d,d,b,d,e,a,a,b,b,d,a,a,a,e,e,c,a,a,b,d,b,d,b
RandomS916,a,e,e,a,c,b,e,a,a,d,a,b,b,d,b,e,a,a,e,b,d,c,c,d,e,c,d
RandomS917,b,b,e,c,a,e,a,c,c,b,a,d,d,c,b,a,d,b,b,e,c,d,b,e,a,b,d
RandomS918,c,e,b,d,d,c,c,d,d,e,c,c,c,b,c,d,d,a,b,e,c,a,a,a,c,a,b
RandomS919,e,a,b,d,c,d,e,b,d,a,e,c,b,c,c,e,e,d,e,d,b,b,e,e,c,c,a
RandomS920,d,d,d,c,b,d,b,d,a,d,e,b,c,b,d,d,a,e,d,e,b,b,e,b,e,c,d
RandomS921,e,e,a,b,a,a,b,e,c,e,e,c,e,d,c,b,b,d,b,e,e,b,c,b,c,a,c
RandomS922,e,a,b,c,c,a,b,d,b,c,e,e,a,d,e,b,d,b,d,d,d,d,c,b,b,d,b
RandomS923,a,a,c,b,b,a,a,a,d,c,a,a,b,e,d,d,b,d,e,a,c,a,d,a,d,e,e
RandomS924,a,b,c,e,d,b,a,e,c,a,a,e,d,c,d,e,b,a,b,b,d,d,b,a,d,a,e
RandomS925,b,b,c,a,a,c,c,a,d,c,e,c,e,d,c,e,e,d,d,d,b,d,d,b,a,c,a
RandomS926,d,e,c,b,a,c,b,e,a,e,d,c,c,b,c,c,d,a,d,c,a,e,a,b,e,c,e
RandomS927,a,a,c,a,d,a,e,e,c,e,a,a,b,b,b,a,c,d,e,b,d,b,e,a,e,d,c
RandomS928,c,c,e,a,a,e,d,e,c,a,e,a,e,a,c,a,c,e,b,e,c,d,c,d,a,e,e
RandomS929,b,b,b,c,e,b,c,d,d,d,a,b,e,d,b,c,e,b,b,c,e,d,c,c,a,b,e
RandomS930,a,e,a,d,e,a,c,c,d,b,a,d,c,e,c,a,d,d,a,a,c,e,b,e,e,b,e
RandomS931,e,b,d,a,e,c,b,c,b,b,b,b,d,a,a,e,b,d,d,d,c,d,a,c,c,b,e
RandomS932,b,d,d,d,a,d,b,b,a,d,a,b,b,d,a,d,a,a,d,d,c,c,e,e,c,b,c
RandomS933,d,e,e,d,e,c,a,b,a,e,b,d,c,b,d,b,d,a,e,c,e,a,b,a,d,e,d
RandomS934,e,c,d,c,e,d,c,e,a,a,a,a,c,c,b,b,c,d,e,d,d,e,b,d,c,b,e
RandomS935,b,e,b,e,b,c,e,a,a,b,b,e,d,b,b,b,d,c,d,e,d,d,a,d,a,b,e
RandomS936,d,c,b,e,a,e,e,d,d,c,b,e,c,e,a,e,b,a,e,c,d,a,c,d,b,a,b
RandomS937,a,e,a,b,b,d,d,a,e,b,d,e,c,e,c,e,c,d,b,a,b,a,e,b,d,c,d
RandomS938,d,c,a,c,c,e,e,a,a,a,a,e,c,d,e,d,d,b,e,c,a,b,e,a,d,a,c
RandomS939,a,e,b,e,e,e,a,c,d,c,a,e,a,d,b,e,e,c,e,a,a,b,a,a,c,d,c
RandomS940,a,b,c,a,d,e,a,a,c,d,a,d,d,b,c,a,d,b,a,a,e,e,d,a,d,e,b
RandomS941,a,b,e,d,e,e,c,a,e,c,d,a,b,c,e,a,e,c,d,e,c,a,c,e,b,d,c
RandomS942,e,c,c,a,b,e,e,d,b,d,e,b,d,e,b,c,d,d,a,c,d,c,b,e,a,e,e
RandomS943,c,a,e,c,a,a,a,e,e,d,a,d,a,d,a,e,a,b,c,b,a,d,a,a,a,b,a
RandomS944,b,d,c,b,e,d,d,c,c,c,a,d,c,c,c,c,e,e,e,d,e,a,c,a,d,c,c
RandomS945,d,a,d,e,a,c,d,d,d,c,d,c,e,d,e,a,e,d,c,a,c,d,e,d,b,c,b
RandomS946,b,a,b,d,b,a,d,a,d,c,d,a,b,a,b,a,e,b,a,d,e,a,b,e,b,d,c
RandomS947,c,e,e,d,a,d,c,e,d,a,a,b,d,c,b,c,b,c,c,a,c,b,a,b,c,a,e
RandomS948,a,b,b,e,c,a,d,a,e,a,c,a,b,d,c,d,a,b,b,e,c,e,c,b,a,c,b
RandomS949,e,b,e,b,d,c,d,c,a,c,a,e,c,e,c,e,e,a,a,b,d,a,a,c,c,a,b
RandomS950,e,c,c,b,e,e,d,a,a,e,b,e,b,d,c,a,c,d,e,b,c,a,c,d,d,b,c
RandomS951,a,a,e,b,b,b,c,d,c,c,a,c,e,e,d,b,e,d,b,d,b,b,e,a,a,d,e
RandomS952,e,c,c,c,a,e,d,d,a,d,a,b,b,b,d,a,e,a,c,e,d,a,e,a,a,c,c
RandomS953,c,d,e,a,b,c,d,c,b,d,d,c,e,b,a,d,a,c,c,b,a,e,d,a,d,c,b
RandomS954,c,c,d,c,e,d,c,c,c,a,b,d,c,b,a,d,c,e,b,d,c,b,c,e,b,e,a
RandomS955,c,d,d,b,a,b,b,a,e,c,c,a,e,a,e,e,b,a,e,c,a,a,d,b,e,d,e
RandomS956,d,e,b,b,e,a,e,a,b,b,c,b,e,a,b,a,e,b,b,d,e,a,b,c,c,b,b
RandomS957,a,a,e,e,d,c,c,d,b,e,d,b,d,e,a,b,c,a,a,d,a,a,b,b,d,d,a
RandomS958,e,a,a,a,d,d,a,e,e,a,a,a,c,c,d,e,e,e,e,b,d,e,b,a,a,e,a
RandomS959,a,d,c,c,a,d,d,c,a,e,e,b,e,c,e,d,a,c,a,c,e,a,c,b,d,a,c
RandomS960,c,d,c,a,b,e,a,d,d,b,e,a,c,d,e,d,c,d,e,c,e,a,e,a,b,a,b
RandomS961,a,a,a,c,d,a,a,c,e,d,b,d,d,d,d,c,b,a,c,d,e,d,a,d,c,a,c
RandomS962,a,d,b,b,d,e,e,b,a,c,d,c,a,b,b,c,e,d,a,e,c,d,e,a,a,c,b
RandomS963,c,a,d,c,c,a,b,e,b,a,c,c,c,b,b,c,c,d,b,b,d,c,d,d,c,d,c
RandomS964,e,c,b,e,d,d,b,c,d,c,a,b,b,b,e,c,d,e,a,e,d,e,a,d,b,a,b
RandomS965,d,e,b,b,c,d,a,a,e,d,e,c,d,c,a,d,d,a,e,e,d,e,e,e,e,d,b
RandomS966,c,d,e,b,e,e,d,e,b,a,a,c,a,b,e,b,a,a,e,d,a,d,d,d,a,a,b
RandomS967,b,d,c,b,d,b,b,a,b,e,e,d,b,d,a,d,e,c,a,d,c,a,a,d,a,a,e
RandomS968,d,e,c,c,d,e,b,d,e,b,e,b,e,c,d,e,b,e,e,a,b,b,d,b,c,b,e
RandomS969,d,d,e,d,b,a,b,d,d,c,d,c,a,e,e,d,b,e,b,e,d,a,b,d,a,b,b
RandomS970,d,d,d,a,b,d,d,b,c,d,b,b,d,d,a,e,e,e,b,e,c,e,b,e,c,b,e
RandomS971,a,c,d,a,b,a,b,a,d,c,a,c,b,a,a,d,d,d,a,d,a,e,c,e,d,b,c
RandomS972,d,b,a,d,e,e,e,a,a,a,e,d,a,d,a,b,c,c,b,c,c,b,a,c,d,e,b
RandomS973,c,a,d,c,e,d,a,b,e,b,e,d,e,b,a,b,b,c,c,e,b,b,a,e,b,c,c
RandomS974,e,d,e,e,b,e,c,a,d,c,a,c,c,a,a,d,d,b,c,d,b,d,c,c,c,e,b
RandomS975,b,d,a,a,d,d,a,d,e,b,c,a,d,c,b,e,a,b,b,a,e,e,a,b,e,e,a
RandomS976,e,a,b,d,e,d,e,e,a,b,d,e,b,c,c,c,e,d,a,d,e,c,e,b,c,e,b
RandomS977,c,e,e,d,a,c,c,a,e,d,c,e,d,d,a,d,d,a,b,b,a,b,c,b,c,a,d
RandomS978,b,b,b,c,d,b,e,c,c,c,c,b,e,d,d,b,c,d,a,b,d,b,c,d,d,b,e
RandomS979,e,b,e,d,b,b,e,e,c,e,b,d,a,c,b,b,c,e,e,a,d,e,b,b,d,a,e
RandomS980,e,d,c,d,b,e,b,e,a,b,a,b,d,a,a,e,d,a,a,e,e,e,c,b,c,c,a
RandomS981,d,b,e,e,b,d,e,c,c,c,a,d,b,c,e,e,b,a,e,c,a,c,c,b,e,e,b
RandomS982,e,a,e,c,c,d,e,d,a,c,b,a,d,a,a,b,c,a,d,b,d,e,e,d,c,e,e
RandomS983,a,d,a,d,b,b,a,a,a,d,c,c,b,d,a,d,e,e,d,c,b,b,c,d,e,a,b
RandomS984,c,d,e,e,a,c,c,b,d,b,e,b,c,b,a,d,a,c,a,a,e,c,e,b,d,e,d
RandomS985,a,c,e,e,d,d,b,c,d,d,c,a,c,e,c,d,b,b,c,a,d,d,c,e,d,b,c
RandomS986,a,e,d,c,e,b,e,e,b,b,e,a,d,d,e,c,c,c,c,c,d,b,b,c,d,e,c
RandomS987,b,c,b,c,e,c,d,a,e,d,d,d,e,e,a,b,a,c,e,b,c,d,a,a,d,b,e
RandomS988,a,b,b,a,d,a,a,d,d,b,e,e,a,d,c,d,a,b,c,b,a,b,a,a,d,e,b
RandomS989,b,b,e,b,d,d,c,e,a,d,e,b,d,a,b,b,e,a,a,c,a,c,e,a,d,d,a
RandomS990,e,c,c,a,b,b,d,d,d,a,a,c,a,e,b,b,e,c,b,a,e,c,b,c,c,d,c
RandomS991,b,d,b,c,c,c,d,c,c,d,a,b,c,a,c,e,e,e,d,b,a,c,a,b,c,a,b
RandomS992,b,a,c,b,b,a,e,c,d,a,e,c,b,b,c,a,b,b,a,d,e,e,e,b,d,b,b
RandomS993,d,d,e,b,e,b,d,c,a,c,c,d,e,c,d,b,e,d,e,c,a,e,d,d,e,e,b
RandomS994,b,e,e,b,b,a,c,b,e,b,c,a,a,c,a,a,e,d,d,b,e,c,b,a,a,a,c
RandomS995,e,d,d,d,c,b,c,e,d,c,e,d,a,c,b,a,b,b,a,c,a,e,b,a,c,e,e
RandomS996,c,d,d,a,b,b,c,a,c,c,c,c,c,b,a,a,e,b,c,b,a,a,a,c,a,d,a
RandomS997,c,e,c,d,d,a,e,e,e,c,d,d,c,e,e,d,a,b,e,a,e,a,b,d,d,e,a
RandomS998,d,d,d,e,e,d,e,d,d,e,e,d,b,a,e,d,e,e,a,c,b,c,c,c,b,e,c
RandomS999,d,e,b,c,b,a,b,c,a,a,a,b,b,c,d,a,a,c,e,d,c,a,a,b,a,b,d
RandomS1000,c,e,d,b,d,e,c,d,b,b,b,e,b,a,a,e,e,d,d,a,e,d,c,b,c,a,c
